C:\SM4\SM4GUI\Source\1-PERSON-X.cbl Mon Jun 01 13:50:30 2009  ACUCOBOL-GT v8.1.0  Page: 0001
c:\Acucorp\Acucbl810\AcuGT\bin\ccbl32.exe -o .\object\@.acu -w -x -Lo .\list\@.lst -Lf -Cr -Fx -Fo C:\SM4\File\xfd -Ds -Vl -Vx -Ga -Za -RW menu -Rw ccol -Rw messages -Rw Pos C:\SM4\SM4GUI\Source\1-PERSON-X.cbl
COPYPATH: C:\SM4\SM4GUI\screen;C:\SM4\SM4GUI\copylib;C:\SM4\SM4GUI\report;C:\SM4\SM4GUI\resource;C:\SM4\SM4GUI\fd;C:\SOFTKIS\SKSAV\CBL;C:\SOFTKIS\SKSAV\COP;C:\SOFTKIS\SKSAV\FILE;C:\ACUCORP\ACUCBL810\ACUGT\SAMPLE\def;C:\SOFTKIS\SKSAV\Depot;C:\SOFTKIS\SKSAV\COPIE;C:\SOFTKIS\SKSAV\CBLOO;C:\SOFTKIS\SKSAV\CBLO;C:\SM4\SM4GUI\Screen;C:\SM4\SM4GUI\Report;C:\SM4\SM4GUI\Copylib;C:\SM4\SM4GUI\FD;C:\SM4\ECRAND;(null)


       IDENTIFICATION DIVISION.
       PROGRAM-ID.                      1-PERSON-X.
       INSTALLATION.                    comment-entry.
       DATE-WRITTEN.                    2008/XX/XX - 99:99:99.
       DATE-COMPILED.                   2008/XX/XX - 00:00:00.

      ******************************************************************
       ENVIRONMENT DIVISION.
       CONFIGURATION SECTION.
       SOURCE-COMPUTER.                 computer-name.
       OBJECT-COMPUTER.                 computer-name.
      *SPECIAL-NAMES.
      *   CURSOR     IS  cursor-name,
      *   CRT STATUS IS  crt-status-name.

       INPUT-OUTPUT SECTION.
       FILE-CONTROL.

           COPY "PERSON.FC".
      *    Fichier des personnes      Salaire-minute
           SELECT OPTIONAL PERSONNE ASSIGN TO RANDOM, "S-PERSON"
                  ORGANIZATION is INDEXED,
                  ACCESS is DYNAMIC,
                  RECORD KEY is PR-MATRICULE,
                  ALTERNATE RECORD KEY is PR-KEY,
                  STATUS FS-PERSON.

      *     SELECT [OPTIONAL] file-name
      *            ASSIGN TO [device] [file-spec]
      *            FILE STATUS IS status-variable.
      *I-O-CONTROL.
      *      i-o-control-entry

      *****************************************************************
       DATA DIVISION.
       FILE SECTION.
      * FD  file-name [IS EXTERNAL] [IS GLOBAL]
      *   [ file-desc { record-description } ...] ... ]
      * SD  file-name
      *   [ sort-desc { record-description } ...]

           COPY "PERSON.FDE".
       FD  PERSONNE
           LABEL RECORD STANDARD
           DATA RECORD PR-RECORD.

           COPY "PERSON.REC".
      *  ENREGISTREMENT FICHIER PERSON

       01  PR-RECORD.
           02 PR-KEY.
              03 PR-MATCHCODE      PIC X(10).
              03 PR-MC-R REDEFINES PR-MATCHCODE.
                 04 PR-MC          PIC X OCCURS 10.
              03 PR-MATRICULE      PIC 9(11).

C:\SM4\SM4GUI\Source\1-PERSON-X.cbl Mon Jun 01 13:50:30 2009  ACUCOBOL-GT v8.1.0  Page: 0002


              03 PR-MATRICULE-R REDEFINES PR-MATRICULE.
                 04 PR-DATE-NAISS PIC 9(8).
                 04 PR-DATE-NAISS-R REDEFINES PR-DATE-NAISS.
                    05 PR-NAISS-A  PIC 9999.
                    05 PR-NAISS-M  PIC 99.
                    05 PR-NAISS-J  PIC 99.
                 04 PR-SNOCS       PIC 999.
                 04 PR-SNOCS-R REDEFINES PR-SNOCS.
                    05 PR-SNOCS-A  PIC 9.
                    05 PR-SNOCS-B  PIC 9.
                    05 PR-SNOCS-C  PIC 9.
              03 PR-MATRICULE-R1 REDEFINES PR-MATRICULE.
                 04 PR-MAT         PIC 9 OCCURS 11.

           02 PR-REC-DET.
              03 PR-PAYS           PIC XXX.
              03 PR-CODE-POST      PIC 9(8).
              03 PR-CODE-POST-4 REDEFINES PR-CODE-POST.
                 04 PR-CODE-FILL   PIC 9(4).
                 04 PR-CP4         PIC 9(4).
              03 PR-CODE-POST-5 REDEFINES PR-CODE-POST.
                 04 PR-CODE-FILL   PIC 9(3).
                 04 PR-CP5         PIC 9(5).
              03 PR-NOM            PIC X(30).
              03 PR-PRENOM         PIC X(20).
              03 PR-PRENOM-R REDEFINES PR-PRENOM.
                 04 PR-INITIALE    PIC X.
                 04 PR-SUITE-NOM   PIC X(19).
              03 PR-NOM-JF         PIC X(25).
              03 PR-PRENOM-MARI    PIC X(20).
              03 PR-PRENOM-M REDEFINES PR-PRENOM-MARI.
                 04 PR-INIT-M      PIC X.
                 04 PR-SUITE-MARI  PIC X(19).
              03 PR-RUE            PIC X(40).
              03 PR-MAISON         PIC X(10).
              03 PR-LOCALITE       PIC X(40).
              03 PR-LOC-R REDEFINES PR-LOCALITE.
                 04 PR-INIT-L      PIC X.
                 04 PR-SUITE-LOC   PIC X(39).
              03 PR-POBCO          PIC X(40).
              03 PR-CODE-SEXE      PIC 9.
              03 PR-NATIONALITE    PIC XXX.
              03 PR-LANGUAGE       PIC X.
              03 PR-LIEU-NAISSANCE PIC X(40).
              03 PR-LN-R REDEFINES PR-LIEU-NAISSANCE.
                 04 PR-INIT-N      PIC X.
                 04 PR-SUITE-LN    PIC X(39).
              03 PR-TELEPHONE      PIC X(20).
              03 PR-TELEPHONE-INT  PIC X(20).
              03 PR-TELEPHONE-MOB  PIC X(20).
              03 PR-E-MAIL         PIC X(30).
              03 PR-MALADIE-AGENCE PIC X(15).
              03 PR-POLITESSE      PIC 99.
              03 PR-DOC-ID         PIC X(20).
              03 PR-PERMIS         PIC X(20).
              03 PR-CONTACT-NOM    PIC X(40).
              03 PR-CONTACT-ADR    PIC X(40).

C:\SM4\SM4GUI\Source\1-PERSON-X.cbl Mon Jun 01 13:50:30 2009  ACUCOBOL-GT v8.1.0  Page: 0003


              03 PR-CONTACT-TEL    PIC X(30).
              03 PR-CONTACT-TELB   PIC X(30).
              03 PR-ACTIF          PIC X.
              03 PR-ID-DEB.
                 04 PR-ID-DEB-A    PIC 9999.
                 04 PR-ID-DEB-M    PIC 99.
                 04 PR-ID-DEB-J    PIC 99.
              03 PR-ID-FIN.
                 04 PR-ID-FIN-A    PIC 9999.
                 04 PR-ID-FIN-M    PIC 99.
                 04 PR-ID-FIN-J    PIC 99.
              03 PR-NOTES          PIC X(60).
              03 PR-FILLER         PIC X(240).
              03 PR-STAMP.
                 04 PR-TIME.
                    05 PR-ST-ANNEE PIC 9999.
                    05 PR-ST-MOIS  PIC 99.
                    05 PR-ST-JOUR  PIC 99.
                    05 PR-ST-HEURE PIC 99.
                    05 PR-ST-MIN   PIC 99.
                 04 PR-USER        PIC X(10).


       WORKING-STORAGE SECTION.
      *For C$CALLERR routine to get why the CALL statement Failed.
       77  ERR-CODE                      pic x(2).
       77  ERR-MESSAGE                   pic x(80).
      *For C$RERR routine to get the extendeed file status information.
       01  EXTEND-STAT.
           03 primary-error              pic x(2).
           03 secondary-error            pic x(10).
       01  TEXT-MESSAGE                  pic x(40).
      *For C$RERRNAME routine to get the last file used in an I/O statement.
       77  LAST-FILENAME                 PIC X(40).

       01  H-PERSON-RECORD.
              03 H-PERSON-MATRICULE        PIC 9(11).
              03 H-PERSON-NOM              PIC X(40).
              03 H-PERSON-LOCALITE         PIC X(40).

       01 HE-REG.
           02 H-R PIC Z(4) OCCURS 20.

           COPY "V-VAR.CPY".
       01  INPUT-ERROR           PIC 9.
       01  NOT-FOUND             PIC 9.
       77  EXC-KEY               PIC 9(4) COMP-1.
       77  ESC-KEY               PIC 9(4) COMP-1.
       77  NUL-KEY               PIC 9(4) COMP-1 VALUE 0.
       77  SAVE-KEY              PIC 9(4) COMP-1 VALUE 1.
       77  FAKE-KEY              PIC 9(4) COMP-1 VALUE 13.
       77  DEL-KEY               PIC 9(4) COMP-1 VALUE 98.
       77  WR-KEY                PIC 9(4) COMP-1 VALUE 99.
       77  PV-KEY                PIC 9(4) COMP-1 VALUE 65.
       77  NX-KEY                PIC 9(4) COMP-1 VALUE 66.
       01  IDX                   PIC 9(4)  VALUE 0.
       01  IDX-1                 PIC 9(4)  VALUE 0.

C:\SM4\SM4GUI\Source\1-PERSON-X.cbl Mon Jun 01 13:50:30 2009  ACUCOBOL-GT v8.1.0  Page: 0004


       01  IDX-2                 PIC 9(4)  VALUE 0.
       01  IDX-3                 PIC 9(4)  VALUE 0.
       01  IDX-4                 PIC 9(4)  VALUE 0.
       01  STORE                 PIC 9(8)  VALUE 0.
       01  STATUT                PIC 9 VALUE 0.
       01  LAST-PERSON           PIC 9(8) VALUE 0.
       01  COUT                  PIC 9(8) VALUE 0.
       01  COUT-DEBUT            PIC 9(8) VALUE 0.
       01  COUT-FIN              PIC 9(8) VALUE 0.
       01  COD-SAL               PIC 9(4) VALUE 0.
       01  CS-DEBUT              PIC 9(4) VALUE 0.
       01  CS-FIN                PIC 9(4) VALUE 0.
       01  ACC-IDX PIC 9(6).
       01  ACC-I REDEFINES ACC-IDX.
           02 LIN-IDX            PIC 99.
           02 COL-IDX            PIC 99.
           02 SIZ-IDX            PIC 99.
       77  SH-00                 PIC S9(10)V999999 COMP-3 VALUE 0.
       77  SH-01                 PIC S9(10)V999999 COMP-3 VALUE 0.
       01  ECRAN-IDX             PIC 99 VALUE 1.
       01  INDICE-ZONE           PIC 999 VALUE 1.
       01  DECISION              PIC 999.
       01  ACTION                PIC X VALUE " ".
       01  A-N                   PIC X VALUE "N".
       01  SAVE-LANGUAGE         PIC XX.
       01  SAVE-DATE.
           02 SAVE-ANNEE         PIC 9999.
           02 SAVE-MOIS          PIC 99.
           02 SAVE-JOUR          PIC 99.

       01  EXC-KEY-CTL.
           02 EXC-KEY-FUN     PIC 99  OCCURS 70.
       01  EXC-KEY-CTL-R REDEFINES EXC-KEY-CTL.
           02 EXC-KFR         PIC 9(10)  OCCURS 14.

       01  TODAY.
           02 TODAY-DATE   PIC 9(8).
           02 TODAY-DATE-R REDEFINES TODAY-DATE.
              03 TODAY-ANNEE  PIC 9999.
              03 TD-ANNEE-R REDEFINES TODAY-ANNEE.
                 04 TD-SIECLE PIC 99.
                 04 TD-ANNEE  PIC 99.
              03 TODAY-MJ  PIC 9999.
              03 TD-MJ-R REDEFINES TODAY-MJ.
                 04 TODAY-MOIS   PIC 99.
                 04 TODAY-JOUR   PIC 99.
           02 TODAY-TEMPS.
              03 TODAY-HEURE  PIC 99.
              03 TODAY-MIN    PIC 99.
              03 TODAY-SECS   PIC 9999.
       01  TODAY-A REDEFINES TODAY.
           02 TODAY-TIME.
              03 TODAY-DATE-A    PIC 9(8).
              03 TODAY-TEMPS-A   PIC 9(4).
           02 TODAY-FILLER.
              03 TODAY-FILL   PIC 9999.
       01  TODAY-B REDEFINES TODAY.

C:\SM4\SM4GUI\Source\1-PERSON-X.cbl Mon Jun 01 13:50:30 2009  ACUCOBOL-GT v8.1.0  Page: 0005


           02 TODAY-TIME-B.
              03 TODAY-DATE-B    PIC 9(8).
              03 TODAY-TEMPS-B   PIC 9(6).
           02 TODAY-FILLER.
              03 TODAY-FILL   PIC 99.


           COPY "V-LINK.CPY".
       01  LINK-V.
           02 LNK-USER       PIC X(10).
           02 LNK-LANGUAGE   PIC XX.
           02 LG-IDX         PIC 99.
           02 LNK-AREA       PIC XXXX.
           02 LNK-COMPETENCE PIC 9.
           02 LNK-DATE.
              03 LNK-ANNEE  PIC 9(4).
              03 LNK-ANNEE-R REDEFINES LNK-ANNEE.
                 04 LNK-MILLE   PIC 9.
                 04 LNK-SUFFIX  PIC 999.
              03 LNK-ANNEE-S REDEFINES LNK-ANNEE.
                 04 LNK-SIECLE   PIC 99.
                 04 LNK-DECENNIE PIC 99.
              03 LNK-MOIS   PIC 99.
              03 LNK-JOUR   PIC 99.
           02 LNK-DATE-DEVIANT.
              03 LNK-ANNEE-D PIC 9(4).
              03 LNK-ANNEE-DR REDEFINES LNK-ANNEE-D.
                 04 LNK-MILLE-D  PIC 9.
                 04 LNK-SUFFIX-D PIC 999.
              03 LNK-MOIS-D  PIC 99.
           02 LNK-SUITE      PIC 99.
           02 S-I.
              03 SEM-MOIS OCCURS 12.
                 04 SEM-IDX     PIC  9 OCCURS 31.
                 04 SEM-NUM     PIC 99 OCCURS 31.
                 04 SEM-LINE    PIC  9 OCCURS 31.
           02 MOIS-ANNEE        PIC X(24).
           02 MOIS-JOURS REDEFINES MOIS-ANNEE.
              03 MOIS-JRS PIC 99 OCCURS 12.
           02 INDEXES.
              03 MOIS-IDX PIC 999V9(8) OCCURS 12.
              03 MOIS-SALMIN PIC 9(5)V9(4) OCCURS 12.
           02 INDEX-F REDEFINES INDEXES.
              03 MOIS-TX PIC 99999V9(6) OCCURS 12.
              03 MOIS-SALMINR PIC 9(5)V9(4) OCCURS 12.

           02 LNK-MATRICULE  PIC 9(11).
           02 LNK-KEY        PIC 9(8).
           02 LNK-PERSON     PIC 9(8).
           02 LNK-AB         REDEFINES LNK-PERSON.
              03 LNK-A       PIC 9(4).
              03 LNK-B       PIC 9(4).
           02 LNK-NOM        PIC X(60).
           02 LNK-NOM-R1     REDEFINES LNK-NOM.
              03 LNK-MATR       PIC 9(13).
              03 LNK-FILL       PIC X(47).
           02 LNK-NOM-R      REDEFINES LNK-NOM.

C:\SM4\SM4GUI\Source\1-PERSON-X.cbl Mon Jun 01 13:50:30 2009  ACUCOBOL-GT v8.1.0  Page: 0006


              03 LNK-TEXT       PIC X(50).
              03 LNK-NUM        PIC 9(6).
              03 LNK-CALL-1     PIC 99.
              03 LNK-CALL-2     PIC 99.
           02 LNK-NOM-R2     REDEFINES LNK-NOM.
              03 LNK-TEXT-1     PIC X(20).
              03 LNK-TEXT-2     PIC X(20).
              03 LNK-TEXT-3     PIC X(20).
           02 LNK-STATUS     PIC 99.
           02 LNK-VAL        PIC S9(8)V9(4) COMP-3.
           02 LNK-VAL-2      PIC S9(8)V9(4) COMP-3.
           02 LNK-INDEX      PIC 99.
           02 LNK-CHOIX      PIC 99.
           02 LNK-YN         PIC X.
           02 LNK-POSITION   PIC 9(8).
           02 LNK-POSITION-R REDEFINES LNK-POSITION.
              03 LNK-LINE    PIC 99.
              03 LNK-COL     PIC 99.
              03 LNK-SIZE    PIC 99.
              03 LNK-SPACE   PIC 99.

           02 LNK-LOW        PIC X.
           02 LNK-EXC-KEY    PIC 9(4) COMP-1.
           02 LNK-A-N        PIC X.
           02 LNK-PRESENCE   PIC 9.
           02 LNK-LIMITE     PIC 9999.
           02 LNK-COLOR1     PIC 9.
           02 LNK-COLOR2     PIC 9.
           02 LNK-COLOR3     PIC 9.
           02 LNK-FIRME      PIC 9(6).
           02 LNK-REGISTRE   PIC 9(8).
           02 LNK-TOP        PIC 9999.
           02 LNK-TODAY      PIC 9(8).
           02 LNK-TODAY-R REDEFINES LNK-TODAY.
              03 LNK-AA  PIC 9(4).
              03 LNK-MM  PIC 99.
              03 LNK-JJ  PIC 99.
           02 LNK-LICENSE    PIC 9999.
           02 LNK-FILLER     PIC X(11).
           02 LNK-LOG        PIC X.
           02 LNK-SQL        PIC X.

      *    Copie du fichier menu

           02 MENU-RECORD.
              03 MENU-KEY.
                 04 MENU-LEVEL.
                    05 MENU-LEV      PIC 99 OCCURS 5.

              03 MENU-BODY.
                 04 MENU-PROG-NAME   PIC X(8).
                 04 MENU-PROG-NAME-R REDEFINES MENU-PROG-NAME.
                    05 MENU-PROG-BEG PIC XX.
                    05 MENU-PROG-END PIC X(6).
                 04 MENU-COMPETENCE  PIC 9.
                 04 MENU-CALL        PIC X(8).
                 04 MENU-PASSWORD    PIC X(22).

C:\SM4\SM4GUI\Source\1-PERSON-X.cbl Mon Jun 01 13:50:30 2009  ACUCOBOL-GT v8.1.0  Page: 0007


                 04 MENU-DESCRIPTION PIC X(40).
                 04 MENU-HELP-TEXT   PIC 9(8).
                 04 MENU-PROG-NUMBER PIC 9(8).
                 04 MENU-PROG-NUMBERS REDEFINES MENU-PROG-NUMBER.
                    05 MENU-PROG-NUM PIC 9 OCCURS 8.
                 04 MENU-EXTENSION-1 PIC X(8).
                 04 MENU-EXTENSION-2 PIC X(8).
                 04 MENU-TEST        PIC 9.
                 04 MENU-BATCH       PIC 9.
                 04 MENU-LOG         PIC 9.
                 04 MENU-FILLER      PIC X(20).


           COPY "V-ERR.CPY".
       02  FS-ERROR.
           03 FS-AGENCE     PIC XX.
           03 FS-ATTENTE    PIC XX.
           03 FS-DOCUMENT   PIC XX.
           03 FS-CONTACT    PIC XX.
           03 FS-POCL       PIC XX.
           03 FS-BANQF      PIC XX.
           03 FS-BANQP      PIC XX.
           03 FS-BANQUE     PIC XX.
           03 FS-PLAN       PIC XX.
           03 FS-COMPTE     PIC XX.
           03 FS-CODTEXT    PIC XX.
           03 FS-CALEN      PIC XX.
           03 FS-CARRIERE   PIC XX.
           03 FS-CCOL       PIC XX.
           03 FS-CDPOST     PIC XX.
           03 FS-CONTRAT    PIC XX.
           03 FS-REGIME     PIC XX.
           03 FS-CONGE      PIC XX.
           03 FS-CODFIX     PIC XX.
           03 FS-CODSAL     PIC XX.
           03 FS-CODPAR     PIC XX.
           03 FS-CODCOPY    PIC XX.
           03 FS-CONTYPE    PIC XX.
           03 FS-FUSER      PIC XX.
           03 FS-COUT       PIC XX.
           03 FS-DIS        PIC XX.
           03 FS-DIVIS      PIC XX.
           03 FS-CCC        PIC XX.
           03 FS-CREDIT     PIC XX.
           03 FS-METIER     PIC XX.
           03 FS-QUALIF     PIC XX.
           03 FS-EQUIPE     PIC XX.
           03 FS-LAYOUT     PIC XX.
           03 FS-CCM        PIC XX.
           03 FS-FACTURE    PIC XX.
           03 FS-FICHE      PIC XX.
           03 FS-FIRME      PIC XX.
           03 FS-FISC       PIC XX.
           03 FS-TAUXCC     PIC XX.
           03 FS-BAREME     PIC XX.
           03 FS-BARDEF     PIC XX.
           03 FS-FAMILLE    PIC XX.

C:\SM4\SM4GUI\Source\1-PERSON-X.cbl Mon Jun 01 13:50:30 2009  ACUCOBOL-GT v8.1.0  Page: 0008


           03 FS-COMPP      PIC XX.
           03 FS-CPFIX      PIC XX.
           03 FS-HORSEM     PIC XX.
           03 FS-CONV       PIC XX.
           03 FS-PLANDEF    PIC XX.
           03 FS-IMPOT      PIC XX.
           03 FS-IMPLOG     PIC XX.
           03 FS-IMPSYS     PIC XX.
           03 FS-IMPTYP     PIC XX.
           03 FS-FID        PIC XX.
           03 FS-INDEX      PIC XX.
           03 FS-LOG        PIC XX.
           03 FS-JOURNAL    PIC XX.
           03 FS-LIBELLE    PIC XX.
           03 FS-MISSION    PIC XX.
           03 FS-LIVRE      PIC XX.
           03 FS-MEMO       PIC XX.
           03 FS-MOTDEP     PIC XX.
           03 FS-JOURS      PIC XX.
           03 FS-HEURES     PIC XX.
           03 FS-PLANS      PIC XX.
           03 FS-OCCUP      PIC XX.
           03 FS-OCCOM      PIC XX.
           03 FS-OCCTEXT    PIC XX.
           03 FS-RUBRIQUE   PIC XX.
           03 FS-PAIE       PIC XX.
           03 FS-PALIER     PIC XX.
           03 FS-PAYS       PIC XX.
           03 FS-PERSON     PIC XX.
           03 FS-POSTE      PIC XX.
           03 FS-PRIME      PIC XX.
           03 FS-ETAPE      PIC XX.
           03 FS-INTER      PIC XX.
           03 FS-POSE       PIC XX.
           03 FS-PREV       PIC XX.
           03 FS-RAISON     PIC XX.
           03 FS-COMPETE    PIC XX.
           03 FS-SPOOLM     PIC XX.
           03 FS-MINUTE     PIC XX.
           03 FS-SYNDICAT   PIC XX.
           03 FS-STATUT     PIC XX.
           03 FS-RAPPORT    PIC XX.
           03 FS-PCREF      PIC XX.
           03 FS-TRI        PIC XX.
           03 FS-REGION     PIC XX.
           03 FS-TAUX       PIC XX.
           03 FS-TAUXSS     PIC XX.
           03 FS-TXACC      PIC XX.
           03 FS-MALADIE    PIC XX.
           03 FS-VOITURE    PIC XX.
           03 FS-DIPLOME    PIC XX.
           03 FS-MENUTEXT   PIC XX.
           03 FS-VIREM      PIC XX.
           03 FS-MENU       PIC XX.
           03 FS-USER       PIC XX.
           03 FS-MESSAGE    PIC XX.
           03 FS-HELP       PIC XX.

C:\SM4\SM4GUI\Source\1-PERSON-X.cbl Mon Jun 01 13:50:30 2009  ACUCOBOL-GT v8.1.0  Page: 0009


           03 FS-PRINTER    PIC XX.
           03 FS-MENUC      PIC XX.
           03 FS-LIVREARC   PIC XX.
           03 FS-CODARC     PIC XX.
           03 FS-GEOREG     PIC XX.
           03 FS-BANQC      PIC XX.
           03 FS-REGISTRE   PIC XX.
           03 FS-POINT      PIC XX.
           03 FS-LEX        PIC XX.
           03 FS-PLAGE      PIC XX.
           03 FS-PROFESSION PIC XX.
           03 FS-QUADEF     PIC XX.
           03 FS-HRANN      PIC XX.
           03 FS-CSPDET     PIC XX.
           03 FS-DECMAL     PIC XX.
           03 FS-SNOCS      PIC XX.
           03 FS-SPOOLQ     PIC XX.
           03 FS-PARMOD     PIC XX.
           03 FS-IMPTAB     PIC XX.
           03 FS-FORM       PIC XX.
           03 FS-OBJET      PIC XX.
           03 FS-TRANS      PIC XX.
           03 FS-PICKUP     PIC XX.
           03 FS-HOPSEM     PIC XX.
           03 FS-DEVISE     PIC XX.
           03 FS-HPJOUR     PIC XX.
           03 FS-LIVANN     PIC XX.
           03 FS-TRACT      PIC XX.
           03 FS-BANQCL     PIC XX.
           03 FS-DOMAINE    PIC XX.
           03 FS-CANDIDAT   PIC XX.
           03 FS-CRITERE    PIC XX.
           03 FS-DOSSIER    PIC XX.
           03 FS-PROFILE    PIC XX.
           03 FS-EVAL       PIC XX.
           03 FS-POSTES     PIC XX.
           03 FS-EVEN       PIC XX.
           03 FS-DEMANDE    PIC XX.
           03 FS-SECTEUR    PIC XX.
           03 FS-FIRMAT     PIC XX.
           03 FS-FNAME      PIC XX.
           03 FS-ORTKZ      PIC XX.
           03 FS-CSDEF      PIC XX.
           03 FS-143        PIC XX.
           03 FS-144        PIC XX.
           03 FS-145        PIC XX.
           03 FS-146        PIC XX.
           03 FS-147        PIC XX.
           03 FS-148        PIC XX.
           03 FS-149        PIC XX.
           03 FS-TVA        PIC XX.
           03 FS-PRIX       PIC XX.
           03 FS-ARTICLE    PIC XX.
           03 FS-ECHEANCE   PIC XX.
           03 FS-VIRDEB     PIC XX.
           03 FS-VIRCRE     PIC XX.
           03 FS-CREART     PIC XX.

C:\SM4\SM4GUI\Source\1-PERSON-X.cbl Mon Jun 01 13:50:30 2009  ACUCOBOL-GT v8.1.0  Page: 0010


           03 FS-157        PIC XX.
           03 FS-158        PIC XX.
           03 FS-159        PIC XX.
           03 FS-PERS-ARCH  PIC XX.
           03 FS-REG-ARCH   PIC XX.
           03 FS-CON-ARCH   PIC XX.
           03 FS-CAR-ARCH   PIC XX.
           03 FS-FICHE-ARCH PIC XX.
           03 FS-CG-ARCH    PIC XX.
           03 FS-BQ-ARCH    PIC XX.
           03 FS-BQP-ARCH   PIC XX.
           03 FS-VIR-ARCH   PIC XX.
           03 FS-MUTU       PIC XX.
           03 FS-170        PIC XX.
           03 FS-171        PIC XX.
           03 FS-172        PIC XX.
           03 FS-173        PIC XX.
           03 FS-174        PIC XX.
           03 FS-175        PIC XX.
           03 FS-176        PIC XX.
           03 FS-177        PIC XX.
           03 FS-178        PIC XX.
           03 FS-179        PIC XX.
           03 FS-180        PIC XX.
           03 FS-181        PIC XX.
           03 FS-182        PIC XX.
           03 FS-183        PIC XX.
           03 FS-184        PIC XX.
           03 FS-185        PIC XX.
           03 FS-186        PIC XX.
           03 FS-187        PIC XX.
           03 FS-188        PIC XX.
           03 FS-189        PIC XX.
           03 FS-FIRME-ARCH PIC XX.
           03 FS-CC-ARCH    PIC XX.
           03 FS-BQF-ARCH   PIC XX.
           03 FS-193        PIC XX.
           03 FS-194        PIC XX.
           03 FS-195        PIC XX.
           03 FS-196        PIC XX.
           03 FS-197        PIC XX.
           03 FS-198        PIC XX.
           03 FS-199        PIC XX.
           03 FS-200        PIC XX.
       02  FS-ERROR-R REDEFINES FS-ERROR.
           03 FS-ERR        PIC XX OCCURS 200.

       02  EXTENDED-STATUS PIC 99V99.

           COPY "FIRME.LNK".

       02  FR-RECORD.
           03 FR-KEY-ALPHA.
              04 FR-MATCHCODE        PIC X(10).
              04 FR-KEY              PIC 9(8).

           03 FR-REC-DET.

C:\SM4\SM4GUI\Source\1-PERSON-X.cbl Mon Jun 01 13:50:30 2009  ACUCOBOL-GT v8.1.0  Page: 0011


              04 FR-PAYS             PIC XXX.
              04 FR-CODE-POST        PIC 9(8).
              04 FR-CP REDEFINES FR-CODE-POST.
                 05 FR-CP-FILL       PIC 9999.
                 05 FR-CP-LUX        PIC 9999.
              04 FR-CP1 REDEFINES FR-CODE-POST.
                 05 FR-CP-FILL       PIC 999.
                 05 FR-CP5           PIC 9(5).
              04 FR-NOM              PIC X(40).
              04 FR-RUE              PIC X(40).
              04 FR-MAISON           PIC X(10).
              04 FR-LOCALITE         PIC X(50).
              04 FR-GESTION          PIC X(8).
              04 FR-CORRESPONDANT    PIC X(20).
              04 FR-COURRIER-1       PIC X(50).
              04 FR-COURRIER-2       PIC X(50).
              04 FR-COURRIER-3       PIC X(50).

              04 FR-ACTIVITE         PIC X(50).
              04 FR-PHONE            PIC X(20).
              04 FR-FAX              PIC X(20).
              04 FR-FISC-BUREAU      PIC X(10).
              04 FR-FISC-CODE        PIC 9.

              04 FR-PASSWORD         PIC X(22).
              04 FR-COMPETENCE       PIC 9.

              04 FR-DATE-DEB         PIC 9(8).
              04 FR-DATE-DEB-R REDEFINES FR-DATE-DEB.
                 05 FR-DEB-A         PIC 9999.
                 05 FR-DEB-M         PIC 99.
                 05 FR-DEB-J         PIC 99.
              04 FR-DATE-FIN         PIC 9(8).
              04 FR-DATE-FIN-R REDEFINES FR-DATE-FIN.
                 05 FR-FIN-A         PIC 9999.
                 05 FR-FIN-M         PIC 99.
                 05 FR-FIN-J         PIC 99.

              04 FR-DATE-ETAB.
                 05 FR-ETAB          PIC 9(13).
              04 FR-MATRICULE REDEFINES FR-DATE-ETAB.
                 05 FR-ETAB-A        PIC 9999.
                 05 FR-ETAB-N        PIC 9999.
                 05 FR-SNOCS         PIC 999.
                 05 FR-EXTENS        PIC 99.
              04 FR-MATRICULE-R REDEFINES FR-DATE-ETAB.
                 05 FR-MAT           PIC 9 OCCURS 13.
              04 FR-MATRICULE-P REDEFINES FR-DATE-ETAB.
                 05 FR-PERS          PIC 9(11).
                 05 FR-EXTENS-P      PIC 99.

              04 FR-FISC.
                 05 FR-FISC-A        PIC 9999.
                 05 FR-FISC-N        PIC 9999.
                 05 FR-FISC-M        PIC 999.

              04 FR-CONTREPARTIE     PIC X(8).

C:\SM4\SM4GUI\Source\1-PERSON-X.cbl Mon Jun 01 13:50:30 2009  ACUCOBOL-GT v8.1.0  Page: 0012


              04 FR-FREQ-COMPTA      PIC 99.
              04 FR-CLIENT-COMPTA    PIC 9(8).
              04 FR-REMARQUE         PIC X(50).
              04 FR-LOGO             PIC X(40).
              04 FR-FIP-POSTE        PIC X.

              04 FR-SNOCS-YN         PIC X.
              04 FR-ACCIDENT         PIC 99.
              04 FR-SANTE            PIC X.

              04 FR-FREQ-FACT        PIC 99.
              04 FR-IMP-CONGE        PIC X.
              04 FR-LANGUE           PIC XX.
              04 FR-CODPAR           PIC 99.
              04 FR-BASE-IMPOT       PIC 9.
              04 FR-ETAPES           PIC X.
              04 FR-PRIME            PIC 99.
              04 FR-CLIENT-YN        PIC X.
              04 FR-TF-COMPTA        PIC X(8).
              04 FR-IMP-RECUP        PIC X.
              04 FR-PORTO            PIC X.
              04 FR-FORM-SAL         PIC X.
              04 FR-EMAIL            PIC X(40).
              04 FR-TVA              PIC X(20).
              04 FR-IMP-FERIE        PIC X.
              04 FR-IMP-REPOS        PIC X.
              04 FR-IMP-MOBIL        PIC X.
              04 FR-TRANSPORT        PIC X.
              04 FR-FIP-LOGO         PIC X.
              04 FR-RESPONSABLE      PIC 9(11).
              04 FR-TYPE             PIC 9.
              04 FR-METIER           PIC X(10).
              04 FR-NOM-JF           PIC X.
              04 FR-COMMERCE         PIC X(15).
              04 FR-CCM              PIC X.
              04 FR-ECHEANCE         PIC 999.
              04 FR-COMPTA           PIC X(15).
              04 FR-ARRONDI          PIC X.
              04 FR-ANNEE-ARRONDI    PIC 9999.
              04 FR-TAUX-FEDIL       PIC 99.
              04 FR-ENVELOPPE        PIC X.
              04 FR-IMP-JOURS        PIC X.
              04 FILLER              PIC X(54).
            03 FR-STAMP.
                 04 FR-TIME.
                    05 FR-ST-ANNEE   PIC 9999.
                    05 FR-ST-MOIS    PIC 99.
                    05 FR-ST-JOUR    PIC 99.
                    05 FR-ST-HEURE   PIC 99.
                    05 FR-ST-MIN     PIC 99.
                 04 FR-USER          PIC X(10).





           COPY "PERSON.LK".

C:\SM4\SM4GUI\Source\1-PERSON-X.cbl Mon Jun 01 13:50:30 2009  ACUCOBOL-GT v8.1.0  Page: 0013


      *  ENREGISTREMENT FICHIER PERSON
      *
       01 PRL-RECORD.
           02 PRL-KEY.
               03 PRL-MATCHCODE     PIC  X(10).
               03 PRL-MC-R REDEFINES PRL-MATCHCODE.
                   04 PRL-MC            PIC  X
                              OCCURS 10 TIMES.
               03 PRL-MATRICULE     PIC  9(11).
               03 PRL-MATRICULE-R REDEFINES PRL-MATRICULE.
                   04 PRL-DATE-NAISS    PIC  9(8).
                   04 PRL-DATE-NAISS-R REDEFINES PRL-DATE-NAISS.
                       05 PRL-NAISS-A       PIC  9999.
                       05 PRL-NAISS-M       PIC  99.
                       05 PRL-NAISS-J       PIC  99.
                   04 PRL-SNOCS         PIC  999.
                   04 PRL-SNOCS-R REDEFINES PRL-SNOCS.
                       05 PRL-SNOCS-A       PIC  9.
                       05 PRL-SNOCS-B       PIC  9.
                       05 PRL-SNOCS-C       PIC  9.
               03 PRL-MATRICULE-R1 REDEFINES PRL-MATRICULE.
                   04 PRL-MAT           PIC  9
                              OCCURS 11 TIMES.
           02 PRL-REC-DET.
               03 PRL-PAYS          PIC  XXX.
               03 PRL-CODE-POST     PIC  9(8).
               03 PRL-CODE-POST-4 REDEFINES PRL-CODE-POST.
                   04 PRL-CODE-FILL     PIC  9(4).
                   04 PRL-CP4           PIC  9(4).
               03 PRL-CODE-POST-5 REDEFINES PRL-CODE-POST.
                   04 PRL-CODE-FILL     PIC  9(3).
                   04 PRL-CP5           PIC  9(5).
               03 PRL-NOM           PIC  X(30).
               03 PRL-PRENOM        PIC  X(20).
               03 PRL-PRENOM-R REDEFINES PRL-PRENOM.
                   04 PRL-INITIALE      PIC  X.
                   04 PRL-SUITE-NOM     PIC  X(19).
               03 PRL-NOM-JF        PIC  X(25).
               03 PRL-PRENOM-MARI   PIC  X(20).
               03 PRL-PRENOM-M REDEFINES PRL-PRENOM-MARI.
                   04 PRL-INIT-M        PIC  X.
                   04 PRL-SUITE-MARI    PIC  X(19).
               03 PRL-RUE           PIC  X(40).
               03 PRL-MAISON        PIC  X(10).
               03 PRL-LOCALITE      PIC  X(40).
               03 PRL-LOC-R REDEFINES PRL-LOCALITE.
                   04 PRL-INIT-L        PIC  X.
                   04 PRL-SUITE-LOC     PIC  X(39).
               03 PRL-POBCO         PIC  X(40).
               03 PRL-CODE-SEXE     PIC  9.
               03 PRL-NATIONALITE   PIC  XXX.
               03 PRL-LANGUAGE      PIC  X.
               03 PRL-LIEU-NAISSANCE            PIC  X(40).
               03 PRL-LN-R REDEFINES PRL-LIEU-NAISSANCE.
                   04 PRL-INIT-N        PIC  X.
                   04 PRL-SUITE-LN      PIC  X(39).
               03 PRL-TELEPHONE     PIC  X(20).

C:\SM4\SM4GUI\Source\1-PERSON-X.cbl Mon Jun 01 13:50:30 2009  ACUCOBOL-GT v8.1.0  Page: 0014


               03 PRL-TELEPHONE-INT PIC  X(20).
               03 PRL-TELEPHONE-MOB PIC  X(20).
               03 PRL-E-MAIL        PIC  X(50).
               03 PRL-MALADIE-AGENCE            PIC  X(15).
               03 PRL-POLITESSE     PIC  99.
               03 PRL-DOC-ID        PIC  X(20).
               03 PRL-PERMIS        PIC  X(20).
               03 PRL-CONTACT-NOM   PIC  X(40).
               03 PRL-CONTACT-ADR   PIC  X(40).
               03 PRL-CONTACT-TEL   PIC  X(30).
               03 PRL-CONTACT-TELB  PIC  X(30).
               03 PRL-ACTIF         PIC  X.
               03 PRL-ID-DEB.
                   04 PRL-ID-DEB-A      PIC  9999.
                   04 PRL-ID-DEB-M      PIC  99.
                   04 PRL-ID-DEB-J      PIC  99.
               03 PRL-ID-FIN.
                   04 PRL-ID-FIN-A      PIC  9999.
                   04 PRL-ID-FIN-M      PIC  99.
                   04 PRL-ID-FIN-J      PIC  99.
               03 PRL-NOTES         PIC  X(60).
               03 PRL-FILLER        PIC  X(240).
               03 PRL-STAMP.
                   04 PRL-TIME.
                       05 PRL-ST-ANNEE      PIC  9999.
                       05 PRL-ST-MOIS       PIC  99.
                       05 PRL-ST-JOUR       PIC  99.
                       05 PRL-ST-HEURE      PIC  99.
                       05 PRL-ST-MIN        PIC  99.
                   04 PRL-USER          PIC  X(10).
           COPY "PERSON.LNK".
      *  ENREGISTREMENT FICHIER PERSON

       01  LINK-RECORD.
           02 LINK-KEY.
              03 LINK-MATCHCODE      PIC X(10).
              03 LINK-MATRICULE.
                 04 LINK-DATE-NAISS PIC 9(8).
                 04 LINK-DATE-NAISS-R REDEFINES LINK-DATE-NAISS.
                    05 LINK-NAISS-A  PIC 9999.
                    05 LINK-NAISS-M  PIC 99.
                    05 LINK-NAISS-J  PIC 99.
                 04 LINK-SNOCS       PIC 999.

           02 LINK-REC-DET.
              03 LINK-PAYS           PIC XXX.
              03 LINK-CODE-POST      PIC 9(8).
              03 LINK-NOM            PIC X(30).
              03 LINK-PRENOM         PIC X(20).
              03 LINK-NOM-JF         PIC X(25).
              03 LINK-PRENOM-MARI    PIC X(20).
              03 LINK-RUE            PIC X(40).
              03 LINK-MAISON         PIC X(10).
              03 LINK-LOCALITE       PIC X(40).
              03 LINK-POBCO          PIC X(40).
              03 LINK-CODE-SEXE      PIC 9.
              03 LINK-NATIONALITE    PIC XXX.

C:\SM4\SM4GUI\Source\1-PERSON-X.cbl Mon Jun 01 13:50:30 2009  ACUCOBOL-GT v8.1.0  Page: 0015


              03 LINK-LANGUAGE       PIC X.
              03 LINK-LIEU-NAISSANCE PIC X(40).
              03 LINK-TELEPHONE      PIC X(20).
              03 LINK-TELEPHONE-INT  PIC X(20).
              03 LINK-TELEPHONE-MOB  PIC X(20).
              03 LINK-E-MAIL         PIC X(30).
              03 LINK-MALADIE-AGENCE PIC X(15).
              03 LINK-POLITESSE      PIC 99.
              03 LINK-DOC-ID         PIC X(20).
              03 LINK-PERMIS         PIC X(20).
              03 LINK-CONTACT-NOM    PIC X(40).
              03 LINK-CONTACT-ADR    PIC X(40).
              03 LINK-CONTACT-TEL    PIC X(30).
              03 LINK-CONTACT-TELB   PIC X(30).
              03 LINK-ACTIF          PIC X.
              03 LINK-ID-DEB.
                 04 LINK-ID-DEB-A    PIC 9999.
                 04 LINK-ID-DEB-M    PIC 99.
                 04 LINK-ID-DEB-J    PIC 99.
              03 LINK-ID-FIN.
                 04 LINK-ID-FIN-A    PIC 9999.
                 04 LINK-ID-FIN-M    PIC 99.
                 04 LINK-ID-FIN-J    PIC 99.
              03 LINK-FILLER         PIC X(300).
              03 LINK-STAMP.
                 04 LINK-TIME.
                    05 LINK-ST-ANNEE PIC 9999.
                    05 LINK-ST-MOIS  PIC 99.
                    05 LINK-ST-JOUR  PIC 99.
                    05 LINK-ST-HEURE PIC 99.
                    05 LINK-ST-MIN   PIC 99.
                 04 LINK-USER        PIC X(10).


       01  CRIT-FLAG             PIC 9 VALUE 0.
       01  CRITERES-1            PIC X(50).
       01  HLP-CRIT REDEFINES CRITERES-1.
           03 CRIT               PIC X OCCURS 50.

       01  TST                  PIC X(4).

       01  ITEMS.
           02 ITEM-A OCCURS 10.
              03 ITEM-IDX        PIC 99.
              03 ITEM            PIC X(10).
              03 ITEM-A REDEFINES ITEM.
                 04 ITEM-2       PIC X(2).
                 04 ITEM-F2      PIC X(8).
              03 ITEM-B REDEFINES ITEM.
                 04 ITEM-3       PIC X(3).
                 04 ITEM-F3      PIC X(7).
              03 ITEM-C REDEFINES ITEM.
                 04 ITEM-4       PIC X(4).
                 04 ITEM-F4      PIC X(6).
              03 ITEM-D REDEFINES ITEM.
                 04 ITEM-5       PIC X(5).
                 04 ITEM-F5      PIC X(5).

C:\SM4\SM4GUI\Source\1-PERSON-X.cbl Mon Jun 01 13:50:30 2009  ACUCOBOL-GT v8.1.0  Page: 0016


              03 ITEM-E REDEFINES ITEM.
                 04 ITEM-6       PIC X(6).
                 04 ITEM-F6      PIC X(4).
              03 ITEM-F REDEFINES ITEM.
                 04 ITEM-7       PIC X(7).
                 04 ITEM-F7      PIC X(3).
              03 ITEM-G REDEFINES ITEM.
                 04 ITEM-8       PIC X(8).
                 04 ITEM-F8      PIC X(2).
              03 ITEM-H REDEFINES ITEM.
                 04 ITEM-9       PIC X(9).
                 04 ITEM-F9      PIC X(1).

       01  CHOIX                 PIC 9(4).
       01  CHOIX-A               PIC X(50).
       01  CHOIX-A1 REDEFINES CHOIX-A.
           02 CHOIX-1            PIC 9.
           02 CHOIX-F1           PIC X(9).
           02 CHOIX-FX           PIC X(40).
       01  CHOIX-A2 REDEFINES CHOIX-A.
           02 CHOIX-2            PIC 9(2).
           02 CHOIX-F2           PIC X(8).
           02 CHOIX-FX           PIC X(40).
       01  CHOIX-A3 REDEFINES CHOIX-A.
           02 CHOIX-3            PIC 9(3).
           02 CHOIX-F3           PIC X(7).
           02 CHOIX-FX           PIC X(40).
       01  CHOIX-A4 REDEFINES CHOIX-A.
           02 CHOIX-4            PIC 9(4).
           02 CHOIX-F4           PIC X(6).
           02 CHOIX-FX           PIC X(40).

       01  COMPTEUR              PIC 99.
       01  PRECISION             PIC 9.


       LINKAGE SECTION.
      * [ Data Desciption Entry ....]
           copy "xcall.cpy"
       SCREEN SECTION.

       01  x-call.
           02 x-call-mode pic 9.
           02 x-call-status pic 99.

           02 x-call-result pic 99.
           02 x-call-return pic x(100).

           02 x-call-tabs.
                 05  x-data pic 99 occurs 10.
                 05  x-disp pic 99 occurs 10.
                 05  x-tabs-cnt pic 99.

           02  x-call-para.
                 05  x-par pic x(30) occurs 20.
                 05  x-para-cnt pic 99.


C:\SM4\SM4GUI\Source\1-PERSON-X.cbl Mon Jun 01 13:50:30 2009  ACUCOBOL-GT v8.1.0  Page: 0017


           78 x-call-open      value 0.
           78 x-call-first     value 1.
           78 x-call-next      value 2.
           78 x-call-close     value 3.
           78 x-call-gettabs   value 4.
           78 x-call-setparas  value 5.


      * [ Screen Description Entry ... ]

      ******************************************************************
       PROCEDURE DIVISION.
      *        [ {USING | CHAINING} {parameter} ... ] .


000005     evaluate x-call-mode
              when x-call-open
000015            move 66 to EXC-KEY
00001B            move "A" to A-N
000021            move 0 to x-call-status
00002E            initialize link-matchcode

              when x-call-first
000046            perform nextitem

              when x-call-next
00005C            perform nextitem

              when x-call-close
                   continue

              when x-call-gettabs
000086           move 11 to x-data(1)
000093           move 12 to x-disp(1)

0000A0           move 40  to x-data(2)
0000AD           move 30 to x-disp(2)

0000BA           move 40 to x-data(3)
0000C7           move 40 to x-disp(3)

0000D4           move 3 to x-tabs-cnt

               when x-call-setparas

0000F3           move x-para-cnt to x-para-cnt

                 continue

000107     end-evaluate

000109     Exit Program.
      *    Stop Run.

       nextitem.

000110     initialize x-call-para

C:\SM4\SM4GUI\Source\1-PERSON-X.cbl Mon Jun 01 13:50:30 2009  ACUCOBOL-GT v8.1.0  Page: 0018



000137        if x-para-cnt = 0
000147           perform next-person
              else
      *           move x-par( 1 ) to link-matchcode
      *           perform Read-Fr
00014E        end-if

00014F        if FS-PERSON = "00"


000158              move PR-MATRICULE    to H-PERSON-MATRICULE
      *              move PR-NOM          to H-PERSON-NOM
00015F              string pr-nom DELIMITED BY "  "
                           " "
                           pr-prenom DELIMITED BY SIZE
                           into H-PERSON-NOM
                    end-string
00016E              move PR-LOCALITE     to H-PERSON-LOCALITE

000175              move H-PERSON-RECORD to x-call-return

              end-if

000184        move FS-PERSON to x-call-status

           .

       NEXT-PERSON.
000195     MOVE "N" TO A-N.
00019B     IF INDICE-ZONE = 3
0001A5        MOVE "A" TO A-N.
0001AB     MOVE PR-RECORD TO LINK-RECORD.
0001B5     CALL "6-PERSON" USING LINK-V LINK-RECORD A-N EXC-KEY.
0001CC     MOVE LINK-RECORD TO PR-RECORD.
           .


      * DECLARATIVES.
      * section-name SECTION [ segment-no].
      *    declarative-sentence
      * paragraph-name.
      *     sentence ...   ...
      * END DECLARATIVES.

      * Section-name SECTION [ segment-no].
      *    declarative-sentence
      * Paragraph-name.
      *     sentence ...   ...
       Main Section.

0001DA     Exit Program.
0001DD     Stop Run.

       Library-Routines Section.
      * Library Routines Description


C:\SM4\SM4GUI\Source\1-PERSON-X.cbl Mon Jun 01 13:50:30 2009  ACUCOBOL-GT v8.1.0  Page: 0019


       Display-Call-Err-Message.
0001E6     CALL "C$CALLERR" USING ERR-CODE, ERR-MESSAGE
0001F5     DISPLAY MESSAGE BOX
                   ERR-MESSAGE,
                   TITLE IS "Call Statement Failed".

       Display-Extended-File-Status.
000205     CALL "C$RERR" USING EXTEND-STAT, TEXT-MESSAGE.
000214     CALL "C$RERRNAME" USING LAST-FILENAME.
00021F     MOVE SPACES TO ERR-MESSAGE.
000225     String "File Name :" delimited by size
                  LAST-FILENAME delimited by spaces
                  " Status ["   delimited by size
                  primary-error delimited by size
                  ","           delimited by size
                  secondary-error delimited by spaces
                  "] "          delimited by size
                  TEXT-MESSAGE  delimited by size
              into ERR-MESSAGE
           End-String.
000245     DISPLAY MESSAGE BOX
                   ERR-MESSAGE,
                   TITLE IS "File Status".

       Display-File-Status-Codes.
000255     Evaluate ERR-CODE
               When "00"
00025E            Display Message "Operation successful."
               When "10"
000271            Display Message "End of file."
               When "22"
000284            Display Message "Duplicate key found but not allowed."
               When "23"
000297            Display Message "Record not found."
               When "34"
0002AA            Display Message "Disk full for sequential file or sort
      -                             " file."
               When "35"
0002BD            Display Message "File not found."
               When "41"
0002D0            Display Message "File is already open."
               When "42"
0002E3            Display Message "File not open."
               When "30"
               When "39"
               When other
000304            Perform Display-Extended-File-Status
           End-Evaluate.

C:\SM4\SM4GUI\Source\1-PERSON-X.cbl Mon Jun 01 13:50:30 2009  ACUCOBOL-GT v8.1.0  Page: 0020


STATISTICS

Total Lines:        1073
# of Files:            1
# of Data Items:     800
# of Paragraphs:       8

Elapsed Time:        0.0 seconds
Lines/Minute:    1073000


Code Size:           784 (000310)
Data Size:          7570 (001D92)
Shared Data:          56 (000038)
Extra Segment:        98 (000062)
Thread Segment:       32 (000020)
Address Table:       496 (0001F0)
Program Size:       9036 (00234C)

0 Error(s), 0 Warning(s)
