C:\SM4\SM4GUI\Source\testprg.cbl Wed Jun 03 19:49:12 2009  ACUCOBOL-GT v8.1.0  Page: 0001
c:\Acucorp\Acucbl810\AcuGT\bin\ccbl32.exe -o .\object\@.acu -w -x -Lo .\list\@.lst -Lf -Cr -Fx -Fo C:\SM4\File\xfd -Ds -Vl -Vx -Ga -Za -Rw action -RW menu -Rw ccol -Rw messages -Rw Pos C:\SM4\SM4GUI\Source\testprg.cbl
COPYPATH: ;C:\SM4\SM4GUI\screen;C:\SM4\SM4GUI\copylib;C:\SM4\SM4GUI\report;C:\SM4\SM4GUI\resource;C:\SM4\SM4GUI\fd;C:\SOFTKIS\SKSAV\CBL;C:\SOFTKIS\SKSAV\COP;C:\SOFTKIS\SKSAV\FILE;C:\ACUCORP\ACUCBL810\ACUGT\SAMPLE\def;C:\SOFTKIS\SKSAV\Depot;C:\SOFTKIS\SKSAV\COPIE;C:\SOFTKIS\SKSAV\CBLOO;C:\SOFTKIS\SKSAV\CBLO;C:\SM4\SM4GUI\Screen;C:\SM4\SM4GUI\Report;C:\SM4\SM4GUI\Copylib;C:\SM4\SM4GUI\FD;C:\SM4\ECRAND;(null)


      *{Bench}prg-comment
      * testprg.cbl
      * testprg.cbl is generated from C:\SM4\SM4GUI\testprg.Psf
      *{Bench}end
       IDENTIFICATION              DIVISION.
      *{Bench}prgid
       PROGRAM-ID. testprg.
       AUTHOR. Mitarbeiter.
       DATE-WRITTEN. Samstag, 6. Juni 2009 13:40:52.
       REMARKS.
      *{Bench}end
       ENVIRONMENT                 DIVISION.
       CONFIGURATION               SECTION.
       SPECIAL-NAMES.
      *{Bench}activex-def
      *{Bench}end
      *{Bench}decimal-point
           DECIMAL-POINT IS COMMA.
      *{Bench}end
       INPUT-OUTPUT                SECTION.
       FILE-CONTROL.
      *{Bench}file-control
      *{Bench}end
           COPY "MENU.FC".
      *    Fichier des menus Salaire-minute
           SELECT OPTIONAL MENU ASSIGN TO RANDOM, "S-MENU",
                  ORGANIZATION is INDEXED,
                  ACCESS is DYNAMIC,
                  RECORD KEY is MN-KEY,
                  ALTERNATE RECORD KEY is MN-CALL, DUPLICATES,
                  ALTERNATE RECORD KEY is MN-PROG-NAME, DUPLICATES,
                  STATUS FS-MENU.

      DATA                        DIVISION.
       FILE                        SECTION.
      *{Bench}file
      *{Bench}end
           COPY "MENU.FDE".
       FD  MENU
           LABEL RECORD STANDARD
           DATA RECORD MN-RECORD.
      *  ENREGISTREMENT FICHIER MENUS
            COPY "MENU.REC".

      *  ENREGISTREMENT FICHIER MENUS
       01  MN-RECORD.
           02  MN-KEY PIC 9(10).
           02  MN-LEVEL REDEFINES MN-KEY.
                   04  MN-LEV              PIC 99 OCCURS 5.

           02  MN-BODY.
               03  MN-PROG-NAME            PIC X(8).
               03  MN-PROG-NAME-R REDEFINES MN-PROG-NAME.
                   04 MN-PROG-BEG          PIC XX.
                   04 MN-PROG-END          PIC X(6).

C:\SM4\SM4GUI\Source\testprg.cbl Wed Jun 03 19:49:12 2009  ACUCOBOL-GT v8.1.0  Page: 0002


               03  MN-COMPETENCE           PIC 9.
               03  MN-CALL                 PIC X(8).
               03  MN-PASSWORD             PIC X(22).
               03  MN-DESCRIPTION          PIC X(40).
               03  MN-HELP-TEXT            PIC 9(8).
               03  MN-PROG-NUMBER          PIC 9(8).
               03  MN-PROG-NUMBERS REDEFINES MN-PROG-NUMBER.
                   04 MN-PROG-NUM          PIC 9 OCCURS 8.
               03  MN-EXTENSION-1          PIC X(8).
               03  MN-EXTENSION-2          PIC X(8).
               03  MN-TEST                 PIC 9.
               03  MN-BATCH                PIC 9.
               03  MN-LOG                  PIC 9.
               03  MN-FILLER               PIC X(20).




       WORKING-STORAGE             SECTION.
      *{Bench}acu-def
       COPY "acugui.def".
      * ACUGUI.DEF - useful definitions for graphical systems.
      * Last modified: 26-Sep-2002 - TDC.

      * Copyright (c) 1992-2007 by Acucorp, Inc.  Users of ACUCOBOL
      * may freely include this file in their COBOL source code.

      * Mouse handling variables
      * Structure and opcodes for W$MOUSE system routine

       78  TEST-MOUSE-PRESENCE                 VALUE 0.
       78  GET-MOUSE-STATUS                    VALUE 1.
       78  GET-MOUSE-SCREEN-STATUS             VALUE 2.
       78  SET-MOUSE-POSITION                  VALUE 3.
       78  SET-MOUSE-SCREEN-POSITION           VALUE 4.
       78  SET-MOUSE-SHAPE                     VALUE 5.
       78  SET-DELAYED-MOUSE-SHAPE             VALUE 6.
       78  GET-MOUSE-SHAPE                     VALUE 7.
       78  CAPTURE-MOUSE                       VALUE 8.
       78  RELEASE-MOUSE                       VALUE 9.
       78  ENABLE-MOUSE                        VALUE 10.
       78  SET-MOUSE-HELP                      VALUE 19.
       78  SET-MOUSE-POSITION-EX               VALUE 23.
       78  SET-MOUSE-SCREEN-POSITION-EX        VALUE 24.
       78  SET-MOUSE-POSITION-PIXEL            VALUE 25.
       78  SET-MOUSE-SCREEN-POSITION-PIXEL     VALUE 26.

       01  MOUSE-INFO.
           03  MOUSE-ROW                       PIC XX COMP-X.
               88  MOUSE-OFF-SCREEN            VALUE ZERO.
           03  MOUSE-COL                       PIC XX COMP-X.
           03  LBUTTON-STATUS                  PIC 9.
               88  LBUTTON-DOWN                VALUE 1.
           03  MBUTTON-STATUS                  PIC 9.
               88  MBUTTON-DOWN                VALUE 1.
           03  RBUTTON-STATUS                  PIC 9.
               88  RBUTTON-DOWN                VALUE 1.

C:\SM4\SM4GUI\Source\testprg.cbl Wed Jun 03 19:49:12 2009  ACUCOBOL-GT v8.1.0  Page: 0003


           03  MOUSE-ROW-EX                    PIC 9(6)V99 COMP-4, SYNC.
           03  MOUSE-COL-EX                    PIC 9(6)V99 COMP-4.
           03  MOUSE-ROW-PIXEL                 PIC 9(8) COMP-4.
           03  MOUSE-COL-PIXEL                 PIC 9(8) COMP-4.

       78  ARROW-POINTER                       VALUE 1.
       78  BAR-POINTER                         VALUE 2.
       78  CROSS-POINTER                       VALUE 3.
       78  WAIT-POINTER                        VALUE 4.
       78  HELP-POINTER                        VALUE 5.

      * MOUSE-FLAGS settings

       78  AUTO-MOUSE-HANDLING                 VALUE 1.
       78  ALLOW-LEFT-DOWN                     VALUE 2.
       78  ALLOW-LEFT-UP                       VALUE 4.
       78  ALLOW-LEFT-DOUBLE                   VALUE 8.
       78  ALLOW-MIDDLE-DOWN                   VALUE 16.
       78  ALLOW-MIDDLE-UP                     VALUE 32.
       78  ALLOW-MIDDLE-DOUBLE                 VALUE 64.
       78  ALLOW-RIGHT-DOWN                    VALUE 128.
       78  ALLOW-RIGHT-UP                      VALUE 256.
       78  ALLOW-RIGHT-DOUBLE                  VALUE 512.
       78  ALLOW-MOUSE-MOVE                    VALUE 1024.
       78  ALWAYS-ARROW-CURSOR                 VALUE 2048.
       78  ALLOW-ALL-SCREEN-ACTIONS            VALUE 16384.


      * Menu handling variables
      * W$MENU opcodes

       78  WMENU-NEW                           VALUE 1.
       78  WMENU-DESTROY                       VALUE 2.
       78  WMENU-ADD                           VALUE 3.
       78  WMENU-CHANGE                        VALUE 4.
       78  WMENU-DELETE                        VALUE 5.
       78  WMENU-CHECK                         VALUE 6.
       78  WMENU-UNCHECK                       VALUE 7.
       78  WMENU-ENABLE                        VALUE 8.
       78  WMENU-DISABLE                       VALUE 9.
       78  WMENU-SHOW                          VALUE 10.
       78  WMENU-GET-MENU                      VALUE 11.
       78  WMENU-INPUT                         VALUE 12.
       78  WMENU-BLOCK                         VALUE 13.
       78  WMENU-UNBLOCK                       VALUE 14.
       78  WMENU-GET-BLOCK                     VALUE 15.
       78  WMENU-SET-BLOCK                     VALUE 16.
       78  WMENU-RELEASE                       VALUE 17.
       78  WMENU-GET-CONFIGURATION             VALUE 18.
       78  WMENU-SET-CONFIGURATION             VALUE 19.
       78  WMENU-REFRESH                       VALUE 20.
       78  WMENU-DESTROY-DELAYED               VALUE 21.
       78  WMENU-GET-DELAYED-FLAG              VALUE 22.
       78  WMENU-SET-DELAYED-FLAG              VALUE 23.
       78  WMENU-NEW-POPUP                     VALUE 26.
       78  WMENU-POPUP                         VALUE 27.


C:\SM4\SM4GUI\Source\testprg.cbl Wed Jun 03 19:49:12 2009  ACUCOBOL-GT v8.1.0  Page: 0004


      * W$MENU flags

       78  W-UNCHECKED                         VALUE 0.
       78  W-CHECKED                           VALUE 1.
       78  W-ENABLED                           VALUE 0.
       78  W-DISABLED                          VALUE 16.
       78  W-SEPARATOR                         VALUE 256.

       01  MENU-CONFIGURATION.
           03  MENU-STYLE                         PIC 9 COMP-X.
               88  MENU-IS-STATIC                 VALUE 0.
               88  MENU-IS-POPUP                  VALUE 1.
           03  MENU-CHECK-MARK                    PIC X.
           03  MENU-SUBMENU-MARK                  PIC X.
           03  MENU-COLOR-ATTRIBUTES.
               05  MENU-NORMAL-COLOR-ATTRIBUTES.
                   07  MENU-NORMAL-COLOR          PIC 9(4) COMP-X.
                   07  MENU-NORMAL-COLOR-KEY-1    PIC 9(4) COMP-X.
                   07  MENU-NORMAL-COLOR-KEY-2    PIC 9(4) COMP-X.
               05  MENU-SELECTED-COLOR-ATTRIBUTES.
                   07  MENU-SELECTED-COLOR        PIC 9(4) COMP-X.
                   07  MENU-SELECTED-COLOR-KEY-1  PIC 9(4) COMP-X.
                   07  MENU-SELECTED-COLOR-KEY-2  PIC 9(4) COMP-X.
               05  MENU-DISABLED-COLOR-ATTRIBUTES.
                   07  MENU-DISABLED-COLOR        PIC 9(4) COMP-X.
                   07  MENU-DISABLED-COLOR-KEY-1  PIC 9(4) COMP-X.
                   07  MENU-DISABLED-COLOR-KEY-2  PIC 9(4) COMP-X.
           03  MENU-MONO-ATTRIBUTES.
               05  MENU-NORMAL-MONO-ATTRIBUTES.
                   07  MENU-NORMAL-MONO           PIC 9(4) COMP-X.
                   07  MENU-NORMAL-MONO-KEY-1     PIC 9(4) COMP-X.
                   07  MENU-NORMAL-MONO-KEY-2     PIC 9(4) COMP-X.
               05  MENU-SELECTED-MONO-ATTRIBUTES.
                   07  MENU-SELECTED-MONO         PIC 9(4) COMP-X.
                   07  MENU-SELECTED-MONO-KEY-1   PIC 9(4) COMP-X.
                   07  MENU-SELECTED-MONO-KEY-2   PIC 9(4) COMP-X.
               05  MENU-DISABLED-MONO-ATTRIBUTES.
                   07  MENU-DISABLED-MONO         PIC 9(4) COMP-X.
                   07  MENU-DISABLED-MONO-KEY-1   PIC 9(4) COMP-X.
                   07  MENU-DISABLED-MONO-KEY-2   PIC 9(4) COMP-X.

      * Variables used by menu code created by GENMENU.

       77  MENU-HANDLE                         PIC S9(9) COMP-4.
       77  SUB-HANDLE-1                        PIC S9(9) COMP-4.
       77  SUB-HANDLE-2                        PIC S9(9) COMP-4.
       77  SUB-HANDLE-3                        PIC S9(9) COMP-4.
       77  SUB-HANDLE-4                        PIC S9(9) COMP-4.

      * MESSAGE BOX types

       78  MB-OK                               VALUE 1.
       78  MB-YES-NO                           VALUE 2.
       78  MB-OK-CANCEL                        VALUE 3.
       78  MB-YES-NO-CANCEL                    VALUE 4.

      * MESSAGE BOX responses (MB-OK is both a type and a response)

C:\SM4\SM4GUI\Source\testprg.cbl Wed Jun 03 19:49:12 2009  ACUCOBOL-GT v8.1.0  Page: 0005



       78  MB-YES                              VALUE 1.
       78  MB-NO                               VALUE 2.
       78  MB-CANCEL                           VALUE 3.

      * MESSAGE BOX icons

       78  MB-DEFAULT-ICON                     VALUE 1.
       78  MB-WARNING-ICON                     VALUE 2.
       78  MB-ERROR-ICON                       VALUE 3.

      * W$BITMAP opcodes

       78  WBITMAP-DISPLAY                     VALUE 1.
       78  WBITMAP-DESTROY                     VALUE 2.
       78  WBITMAP-LOAD                        VALUE 3.
       78  WBITMAP-LOAD-IMAGELIST              VALUE 5.
       78  WBITMAP-DESTROY-IMAGELIST           VALUE 6.
       78  WBITMAP-CAPTURE-IMAGE               VALUE 7.
       78  WBITMAP-CAPTURE-DESKTOP             VALUE 8.
       78  WBITMAP-CAPTURE-CLIPBOARD           VALUE 9.
       78  WBITMAP-LOAD-PICTURE                VALUE 10.

      * W$BITMAP option flags

       78  WBITMAP-NO-FILL                     VALUE 1.
       78  WBITMAP-NO-DOWNLOAD                 VALUE 2.

      * W$BITMAP error values

       78  WBERR-UNSUPPORTED                   VALUE 0.
       78  WBERR-FILE-ERROR                    VALUE -1.
       78  WBERR-NO-MEMORY                     VALUE -2.
       78  WBERR-NOT-BITMAP                    VALUE -3.
       78  WBERR-FORMAT-UNSUPPORTED            VALUE -4.
       78  WBERR-MISSING-DLL                   VALUE -5.
       78  WBERR-INVALID-HWND                  VALUE -6.
       78  WBERR-INVALID-DATA                  VALUE -7.
       78  WBERR-INVALID-CLIPBOARD             VALUE -8.
       78  WBERR-INVALID-PALETTE               VALUE -9.
       78  WBERR-CLIPBOARD-EMPTY               VALUE -10.

      * W$TEXTSIZE library routine

       01  TEXTSIZE-DATA.
           03  TEXTSIZE-FONT                   HANDLE OF FONT,
                                               VALUE NULL.
           03  TEXTSIZE-WINDOW                 HANDLE OF WINDOW
                                               VALUE NULL.
           03  TEXTSIZE-SIZE-X                 PIC 9(7)V99 COMP-4.
           03  TEXTSIZE-CELLS-X                PIC 9(7)V99 COMP-4.
           03  TEXTSIZE-BASE-X                 PIC 9(9) COMP-4.
           03  TEXTSIZE-SIZE-Y                 PIC 99V99 COMP-4.
           03  TEXTSIZE-CELLS-Y                PIC 99V99 COMP-4.
           03  TEXTSIZE-BASE-Y                 PIC 9(4) COMP-4.
           03  TEXTSIZE-FLAGS                  PIC X COMP-X, VALUE ZERO.
               88  TEXTSIZE-STRIP-SPACES       VALUE 1, FALSE ZERO.

C:\SM4\SM4GUI\Source\testprg.cbl Wed Jun 03 19:49:12 2009  ACUCOBOL-GT v8.1.0  Page: 0006



      * EVENT-ACTION values

       78  EVENT-ACTION-NORMAL                 VALUE ZERO.
       78  EVENT-ACTION-TERMINATE              VALUE 1.
       78  EVENT-ACTION-CONTINUE               VALUE 2.
       78  EVENT-ACTION-IGNORE                 VALUE 3.
       78  EVENT-ACTION-FAIL                   VALUE 4.
       78  EVENT-ACTION-COMPLETE               VALUE 5.
       78  EVENT-ACTION-FAIL-TERMINATE         VALUE 7.


      * Standard exception values from the windowing system

       78  W-TIMEOUT                           VALUE 99.
       78  W-CONVERSION-ERROR                  VALUE 98.
       78  W-NO-FIELDS                         VALUE 97.
       78  W-EVENT                             VALUE 96.
       78  W-MESSAGE                           VALUE 95.

      * Command events

       78  CMD-CLOSE                           VALUE 1.
       78  CMD-GOTO                            VALUE 3.
       78  CMD-CLICKED                         VALUE 4.
       78  CMD-DBLCLICK                        VALUE 5.
       78  CMD-ACTIVATE                        VALUE 6.
       78  CMD-TABCHANGED                      VALUE 7.
       78  CMD-HELP                            VALUE 8.

      * Notification events

       78  NTF-SELCHANGE                       VALUE 4099.
       78  NTF-CHANGED                         VALUE 4100.
      * The next 7 apply to paged list-boxes only
       78  NTF-PL-NEXT                         VALUE 4101.
       78  NTF-PL-PREV                         VALUE 4102.
       78  NTF-PL-NEXTPAGE                     VALUE 4103.
       78  NTF-PL-PREVPAGE                     VALUE 4104.
       78  NTF-PL-FIRST                        VALUE 4105.
       78  NTF-PL-LAST                         VALUE 4106.
       78  NTF-PL-SEARCH                       VALUE 4107.
       78  NTF-PL-PREV-WHEEL                   VALUE 4108.
       78  NTF-PL-NEXT-WHEEL                   VALUE 4109.
       78  NTF-RESIZED                         VALUE 4114.

      * Message-style events

       78  MSG-SB-NEXT                         VALUE 16385.
       78  MSG-SB-PREV                         VALUE 16386.
       78  MSG-SB-NEXTPAGE                     VALUE 16387.
       78  MSG-SB-PREVPAGE                     VALUE 16388.
       78  MSG-SB-THUMB                        VALUE 16389.
       78  MSG-SB-THUMBTRACK                   VALUE 16390.
       78  MSG-VALIDATE                        VALUE 16391.
       78  MSG-BEGIN-ENTRY                     VALUE 16392.
       78  MSG-FINISH-ENTRY                    VALUE 16393.

C:\SM4\SM4GUI\Source\testprg.cbl Wed Jun 03 19:49:12 2009  ACUCOBOL-GT v8.1.0  Page: 0007


       78  MSG-CANCEL-ENTRY                    VALUE 16394.
       78  MSG-GOTO-CELL                       VALUE 16395.
       78  MSG-GOTO-CELL-MOUSE                 VALUE 16396.
       78  MSG-MENU-INPUT                      VALUE 16397.
       78  MSG-INIT-MENU                       VALUE 16398.
       78  MSG-END-MENU                        VALUE 16399.
       78  MSG-BITMAP-CLICKED                  VALUE 16400.
       78  MSG-BITMAP-DBLCLICK                 VALUE 16401.
       78  MSG-HEADING-CLICKED                 VALUE 16402.
       78  MSG-HEADING-DBLCLICK                VALUE 16403.
       78  MSG-GOTO-CELL-DRAG                  VALUE 16404.
       78  MSG-HEADING-DRAGGED                 VALUE 16405.
       78  MSG-BEGIN-DRAG                      VALUE 16406.
       78  MSG-END-DRAG                        VALUE 16407.
       78  MSG-BEGIN-HEADING-DRAG              VALUE 16408.
       78  MSG-END-HEADING-DRAG                VALUE 16409.
       78  MSG-COL-WIDTH-CHANGED               VALUE 16410.
       78  MSG-TV-SELCHANGING                  VALUE 16411.
       78  MSG-TV-SELCHANGE                    VALUE 16412.
       78  MSG-TV-EXPANDING                    VALUE 16413.
       78  MSG-TV-EXPANDED                     VALUE 16414.
       78  MSG-CLOSE                           VALUE 16415.
       78  MSG-SPIN-UP                         VALUE 16416.
       78  MSG-SPIN-DOWN                       VALUE 16417.
       78  MSG-PAGED-NEXT                      VALUE 16419.
       78  MSG-PAGED-PREV                      VALUE 16420.
       78  MSG-PAGED-NEXTPAGE                  VALUE 16421.
       78  MSG-PAGED-PREVPAGE                  VALUE 16422.
       78  MSG-PAGED-FIRST                     VALUE 16423.
       78  MSG-PAGED-LAST                      VALUE 16424.
       78  MSG-GRID-RBUTTON-DOWN               VALUE 16426.
       78  MSG-GRID-RBUTTON-UP                 VALUE 16427.
       78  MSG-TV-DBLCLICK                     VALUE 16428.
       78  MSG-WB-BEFORE-NAVIGATE              VALUE 16429.
       78  MSG-WB-NAVIGATE-COMPLETE            VALUE 16430.
       78  MSG-WB-DOWNLOAD-BEGIN               VALUE 16431.
       78  MSG-WB-DOWNLOAD-COMPLETE            VALUE 16432.
       78  MSG-WB-PROGRESS-CHANGE              VALUE 16433.
       78  MSG-WB-STATUS-TEXT-CHANGE           VALUE 16434.
       78  MSG-WB-TITLE-CHANGE                 VALUE 16435.
       78  MSG-AX-EVENT                        VALUE 16436.
       78  MSG-NET-EVENT                       VALUE 16437.
       78  MSG-PAGED-PREV-WHEEL                VALUE 16438.
       78  MSG-PAGED-NEXT-WHEEL                VALUE 16439.

       78  WHEEL-PAGESCROLL                    VALUE 4294967295.


      * Entry Field ACTION values

       78  ACTION-CUT                          VALUE 1.
       78  ACTION-COPY                         VALUE 2.
       78  ACTION-PASTE                        VALUE 3.
       78  ACTION-DELETE                       VALUE 4.
       78  ACTION-UNDO                         VALUE 5.

      * Grid ACTION values

C:\SM4\SM4GUI\Source\testprg.cbl Wed Jun 03 19:49:12 2009  ACUCOBOL-GT v8.1.0  Page: 0008



       78  ACTION-FIRST-PAGE                   VALUE 10.
       78  ACTION-LAST-PAGE                    VALUE 11.
       78  ACTION-CURRENT-PAGE                 VALUE 12.
       78  ACTION-HIDE-DRAG                    VALUE 13.
       78  ACTION-PREVIOUS                     VALUE 14.
       78  ACTION-PREVIOUS-PAGE                VALUE 15.
       78  ACTION-NEXT-PAGE                    VALUE 16.
       78  ACTION-NEXT                         VALUE 17.

      * Window ACTION values

       78  ACTION-MINIMIZE                     VALUE 20.
       78  ACTION-MAXIMIZE                     VALUE 21.
       78  ACTION-RESTORE                      VALUE 22.

      * Paged grid FILE-POS values

       78  PAGED-AT-START                      VALUE 2147418113.
       78  PAGED-AT-END                        VALUE 2147418114.
       78  PAGED-EMPTY                         VALUE 2147418115.

      * Grid search options

       01  GRID-SEARCH-OPTIONS                 VALUE ALL ZEROS.
           03  GRID-SEARCH-DIRECTION           PIC 9.
               88  GRID-SEARCH-FORWARDS        VALUE ZERO, FALSE 1.

           03  GRID-SEARCH-WRAP-FLAG           PIC 9.
               88  GRID-SEARCH-WRAP            VALUE ZERO, FALSE 1.

           03  GRID-SEARCH-CASE-FLAG           PIC 9.
               88  GRID-SEARCH-IGNORE-CASE     VALUE ZERO, FALSE 1.

           03  GRID-SEARCH-MATCH-FLAG          PIC 9.
               88  GRID-SEARCH-MATCH-ANY       VALUE ZERO.
               88  GRID-SEARCH-MATCH-LEADING   VALUE 1.
               88  GRID-SEARCH-MATCH-ALL       VALUE 2.

           03  GRID-SEARCH-LOCATION-FLAG       PIC 9.
               88  GRID-SEARCH-VISIBLE         VALUE ZERO.
               88  GRID-SEARCH-HIDDEN          VALUE 1.
               88  GRID-SEARCH-ALL-DATA        VALUE 2.

           03  GRID-SEARCH-SKIP-FLAG           PIC 9.
               88  GRID-SEARCH-SKIP-CURRENT    VALUE ZERO, FALSE 1.

           03  GRID-SEARCH-CURSOR-FLAG         PIC 9.
               88  GRID-SEARCH-MOVES-CURSOR    VALUE ZERO, FALSE 1.

           03  GRID-SEARCH-COLUMN              PIC 9(5).
               88  GRID-SEARCH-ALL-COLUMNS     VALUE ZERO.

      * Grid search status flags

       78  GRDSRCH-NOT-FOUND                   VALUE 0.
       78  GRDSRCH-FOUND                       VALUE 1.

C:\SM4\SM4GUI\Source\testprg.cbl Wed Jun 03 19:49:12 2009  ACUCOBOL-GT v8.1.0  Page: 0009


       78  GRDSRCH-WRAPPED                     VALUE 2.

      * Grid FINISH-REASON values

       78  GRFR-BLANK-PAST-END                 VALUE -1.
       78  GRFR-TERMINATING                    VALUE -2.
       78  GRFR-CELL-CLICKED                   VALUE -3.
       78  GRFR-NAVIGATION-KEY                 VALUE -4.
       78  GRFR-ESCAPE-KEY                     VALUE -5.
       78  GRFR-ENTER-KEY                      VALUE -6.
       78  GRFR-TAB-KEY                        VALUE -7.

      * Flags for win$playsound

       78  SND-SYNC                            VALUE 0.
       78  SND-ASYNC                           VALUE 1.
       78  SND-LOOP                            VALUE 8.
       78  SND-NOSTOP                          VALUE 16.

      * Tree-View control placement flags

       78  TVPLACE-FIRST                       VALUE 4294901761.
       78  TVPLACE-LAST                        VALUE 0.
       78  TVPLACE-SORT                        VALUE 4294901763.

      * Tree-View NEXT-ITEM values

       78  TVNI-CHILD                          VALUE 1.
       78  TVNI-FIRST-VISIBLE                  VALUE 2.
       78  TVNI-NEXT                           VALUE 3.
       78  TVNI-NEXT-VISIBLE                   VALUE 4.
       78  TVNI-PARENT                         VALUE 5.
       78  TVNI-PREVIOUS                       VALUE 6.
       78  TVNI-PREVIOUS-VISIBLE               VALUE 7.
       78  TVNI-ROOT                           VALUE 8.

      * Tree-View miscellaneous flags

       78  TVFLAG-COLLAPSE                     VALUE 1.
       78  TVFLAG-EXPAND                       VALUE 2.
       78  TVFLAG-PROGRAM                      VALUE ZERO.
       78  TVFLAG-MOUSE                        VALUE 1.
       78  TVFLAG-KEYBOARD                     VALUE 2.
       78  TVFLAG-NORMAL                       VALUE 1.
       78  TVFLAG-BOLD                         VALUE 2.

      * Paged list sort-order values

       78  PL-SORT-DEFAULT                     VALUE 0.
       78  PL-SORT-NONE                        VALUE 1.
       78  PL-SORT-NATIVE                      VALUE 2.
       78  PL-SORT-NATIVE-IGNORE-CASE          VALUE 3.

      * Date-Entry VALUE-FORMAT flags

       78  DAVF-YYYYMMDD                       VALUE 0.
       78  DAVF-YYMMDD                         VALUE 1.

C:\SM4\SM4GUI\Source\testprg.cbl Wed Jun 03 19:49:12 2009  ACUCOBOL-GT v8.1.0  Page: 0010


       78  DAVF-HHMMSShh                       VALUE 2.
       78  DAVF-HHMMSS                         VALUE 3.
       78  DAVF-YYYYMMDDHHMMSShh               VALUE 4.

      * Bitmap control flags
       78  BM-CORNER-COLOR                     VALUE x#1000000.

      *  Predefined handle values for MS Windows registry

      *  Windows 3.1:
       78  HKEY_CLASSES_ROOT_31                VALUE 1.

      *  32-bit Windows:
       78  HKEY_CLASSES_ROOT                   VALUE 2147483648.
       78  HKEY_CURRENT_USER                   VALUE 2147483649.
       78  HKEY_LOCAL_MACHINE                  VALUE 2147483650.
       78  HKEY_USERS                          VALUE 2147483651.
       78  HKEY_PERFORMANCE_DATA               VALUE 2147483652.
       78  HKEY_CURRENT_CONFIG                 VALUE 2147483653.
       78  HKEY_DYN_DATA                       VALUE 2147483654.

      * 32-bit Windows Registry Value Types
       78  REG_NONE                       VALUE ZERO.
       78  REG_SZ                         VALUE 1.
       78  REG_EXPAND_SZ                  VALUE 2.
       78  REG_BINARY                     VALUE 3.
       78  REG_DWORD                      VALUE 4.
       78  REG_DWORD_LITTLE_ENDIAN        VALUE 4.
       78  REG_DWORD_BIG_ENDIAN           VALUE 5.
       78  REG_LINK                       VALUE 6.
       78  REG_MULTI_SZ                   VALUE 7.
       78  REG_RESOURCE_LIST              VALUE 8.
       78  REG_FULL_RESOURCE_DESCRIPTOR   VALUE 9.
       78  REG_RESOURCE_REQUIREMENTS_LIST VALUE 10.

       01  WIN32-REGISTRY-VALUE-TYPE          USAGE IS UNSIGNED-LONG.
           88  TYPE-IS-REG_NONE                       VALUE ZERO.
           88  TYPE-IS-REG_SZ                         VALUE 1.
           88  TYPE-IS-REG_EXPAND_SZ                  VALUE 2.
           88  TYPE-IS-REG_BINARY                     VALUE 3.
           88  TYPE-IS-REG_DWORD                      VALUE 4.
           88  TYPE-IS-REG_DWORD_LITTLE_ENDIAN        VALUE 4.
           88  TYPE-IS-REG_DWORD_BIG_ENDIAN           VALUE 5.
           88  TYPE-IS-REG_LINK                       VALUE 6.
           88  TYPE-IS-REG_MULTI_SZ                   VALUE 7.
           88  TYPE-IS-REG_RESOURCE_LIST              VALUE 8.
           88  TYPE-IS-REG_FULL_RESOURCE_DESCRIPTOR   VALUE 9.
           88  TYPE-IS-REG_RESOURCE_REQUIREMENTS_LIST VALUE 10.

      *  32-bit Windows Registry Key Options:
       78  REG_OPTION_NON_VOLATILE               VALUE 0.
       78  REG_OPTION_VOLATILE                   VALUE 1.

      *  32-bit Windows Registry Access Rights:
       78  KEY_QUERY_VALUE         VALUE 1.
       78  KEY_SET_VALUE           VALUE 2.
       78  KEY_CREATE_SUB_KEY      VALUE 4.

C:\SM4\SM4GUI\Source\testprg.cbl Wed Jun 03 19:49:12 2009  ACUCOBOL-GT v8.1.0  Page: 0011


       78  KEY_ENUMERATE_SUB_KEYS  VALUE 8.
       78  KEY_NOTIFY              VALUE 16.
       78  KEY_CREATE_LINK         VALUE 32.
       78  KEY_WRITE               VALUE 131078.
       78  KEY_READ                VALUE 131097.
       78  KEY_EXECUTE             VALUE 131097.
       78  KEY_ALL_ACCESS          VALUE 983103.

      *  32-bit Windows Registry Disposition Values:
       78  REG_CREATED_NEW_KEY               VALUE 1.
       78  REG_OPENED_EXISTING_KEY           VALUE 2.

      *  W$PROGRESSDIALOG opcodes

       78 WPROGRESSDIALOG-CREATE               VALUE 1.
       78 WPROGRESSDIALOG-DESTROY              VALUE 2.
       78 WPROGRESSDIALOG-SET-PROGRESS         VALUE 3.
       78 WPROGRESSDIALOG-QUERY-CANCEL         VALUE 4.
       78 WPROGRESSDIALOG-SET-LINE             VALUE 5.
       78 WPROGRESSDIALOG-RESET-TIMER          VALUE 6.
       78 WPROGRESSDIALOG-C-COPY               VALUE 7.

      *  W$PROGRESSDIALOG flags

       78 WPROGRESSDIALOG-NORMAL               VALUE 0.
       78 WPROGRESSDIALOG-MODAL                VALUE 1.
       78 WPROGRESSDIALOG-AUTOTIME             VALUE 2.
       78 WPROGRESSDIALOG-NOTIME               VALUE 4.
       78 WPROGRESSDIALOG-NOMINIMIZE           VALUE 8.
       78 WPROGRESSDIALOG-NOPROGRESSBAR        VALUE 16.

      *  W$PROGRESSDIALOG animation types

       78 WPROGRESSDIALOG-ANIMATION-NONE       VALUE 0.
       78 WPROGRESSDIALOG-ANIMATION-FILECOPY   VALUE 1.
       78 WPROGRESSDIALOG-ANIMATION-FILEMOVE   VALUE 2.
       78 WPROGRESSDIALOG-ANIMATION-FILEDEL    VALUE 3.
       78 WPROGRESSDIALOG-ANIMATION-FILEDELR   VALUE 4.
       78 WPROGRESSDIALOG-ANIMATION-FILENUKE   VALUE 5.
       78 WPROGRESSDIALOG-ANIMATION-SEARCH     VALUE 6.
       78 WPROGRESSDIALOG-ANIMATION-FINDCOMP   VALUE 7.
       78 WPROGRESSDIALOG-ANIMATION-FINDFILE   VALUE 8.
       78 WPROGRESSDIALOG-ANIMATION-CUSTOM     VALUE 99.

      * end of acugui.def
       COPY "acucobol.def".
      * ACUCOBOL.DEF - Some useful ACUCOBOL definitions.
      * Last modified: 07-May-2001 TDC.

      * Copyright (c) 1996-2007 by Acucorp, Inc.  Users of ACUCOBOL
      * may freely include this file in their COBOL source code.

       01  TERMINAL-ABILITIES.
           03  TERMINAL-NAME                   PIC X(10).
           03  FILLER                          PIC X.
               88  HAS-REVERSE                 VALUE "Y".
           03  FILLER                          PIC X.

C:\SM4\SM4GUI\Source\testprg.cbl Wed Jun 03 19:49:12 2009  ACUCOBOL-GT v8.1.0  Page: 0012


               88  HAS-BLINK                   VALUE "Y".
           03  FILLER                          PIC X.
               88  HAS-UNDERLINE               VALUE "Y".
           03  FILLER                          PIC X.
               88  HAS-DUAL-INTENSITY          VALUE "Y".
           03  FILLER                          PIC X.
               88  HAS-132-COLUMN-MODE         VALUE "Y".
           03  FILLER                          PIC X.
               88  HAS-COLOR                   VALUE "Y".
           03  FILLER                          PIC X.
               88  HAS-LINE-DRAWING            VALUE "Y".
           03  NUMBER-OF-SCREEN-LINES          PIC 9(3).
           03  NUMBER-OF-SCREEN-COLUMNS        PIC 9(3).
           03  FILLER                          PIC X.
               88  HAS-LOCAL-PRINTER           VALUE "Y".
           03  FILLER                          PIC X.
               88  HAS-VISIBLE-ATTRIBUTES      VALUE "Y".
           03  FILLER                          PIC X.
               88  HAS-GRAPHICAL-INTERFACE     VALUE "Y".
           03  USABLE-SCREEN-HEIGHT            PIC X(2) COMP-X.
           03  USABLE-SCREEN-WIDTH             PIC X(2) COMP-X.
           03  PHYSICAL-SCREEN-HEIGHT          PIC X(2) COMP-X.
           03  PHYSICAL-SCREEN-WIDTH           PIC X(2) COMP-X.
           03  FILLER                          PIC X.
               88  IS-REMOTE                   VALUE "Y".
           03  CLIENT-MACHINE-NAME             PIC X(64).
           03  FILLER                          PIC X.
               88  ACU-NO-TERMINAL             VALUE "Y".
           03  CLIENT-USER-ID                  PIC X(20).

       01  SYSTEM-INFORMATION.
           03  OPERATING-SYSTEM                PIC X(10).
               88  OS-IS-MSDOS                 VALUE "MS-DOS".
               88  OS-IS-OS2                   VALUE "OS/2".
               88  OS-IS-VMS                   VALUES "VMS",
                                               "VAX/VMS".
               88  OS-IS-UNIX                  VALUES "Unix",
                                                      "Unix-V", "Unix-4",
                                                      "UNOS".
               88  OS-IS-AOS                   VALUE "AOS/VS".
               88  OS-IS-WINDOWS               VALUE "WINDOWS".
               88  OS-IS-WIN-NT                VALUE "WIN/NT".
               88  OS-IS-WIN-FAMILY            VALUES "WINDOWS",
                                                      "WIN/NT".
               88  OS-IS-AMOS                  VALUE "AMOS".
               88  OS-IS-MPE                   VALUE "MPE/iX".
               88  OS-IS-MPEIX                 VALUE "MPE/iX".
           03  USER-ID                         PIC X(12).
           03  STATION-ID                      PIC X(12).
           03  FILLER                          PIC X.
               88  HAS-INDEXED-READ-PREVIOUS   VALUE "Y".
           03  FILLER                          PIC X.
               88  HAS-RELATIVE-READ-PREVIOUS  VALUE "Y".
           03  FILLER                          PIC X.
               88  CAN-TEST-INPUT-STATUS       VALUE "Y".
           03  FILLER                          PIC X.
               88  IS-MULTI-TASKING            VALUE "Y".

C:\SM4\SM4GUI\Source\testprg.cbl Wed Jun 03 19:49:12 2009  ACUCOBOL-GT v8.1.0  Page: 0013


           03  RUNTIME-VERSION.
               88  VERSION-PRIOR-TO-2-2        VALUE SPACES.
               05  RUNTIME-MAJOR-VERSION       PIC 99.
               05  RUNTIME-MINOR-VERSION       PIC 99.
               05  RUNTIME-RELEASE             PIC 99.
           03  FILLER                          PIC X.
               88  IS-PLUGIN                   VALUE "Y".
           03  SERIAL-NUMBER                   PIC X(20).
           03  FILLER                          PIC X.
               88  HAS-LARGE-FILE-SUPPORT      VALUE "Y".

       01  BROWSERINFO-DATA.
           03  USER-AGENT-STRING               PIC X(50).
           03  BROWSER-MAJOR-VERSION           PIC X COMP-X.
           03  BROWSER-MINOR-VERSION           PIC X COMP-X.

       78  BLACK                               VALUE 1.
       78  BLUE                                VALUE 2.
       78  GREEN                               VALUE 3.
       78  CYAN                                VALUE 4.
       78  RED                                 VALUE 5.
       78  MAGENTA                             VALUE 6.
       78  BROWN                               VALUE 7.
       78  WHITE                               VALUE 8.
       78  DARK-GRAY                           VALUE 9.
       78  BRIGHT-BLUE                         VALUE 10.
       78  BRIGHT-GREEN                        VALUE 11.
       78  BRIGHT-CYAN                         VALUE 12.
       78  BRIGHT-RED                          VALUE 13.
       78  BRIGHT-MAGENTA                      VALUE 14.
       78  YELLOW                              VALUE 15.
       78  BRIGHT-WHITE                        VALUE 16.
       78  BCKGRND-BLACK                       VALUE 32.
       78  BCKGRND-BLUE                        VALUE 64.
       78  BCKGRND-GREEN                       VALUE 96.
       78  BCKGRND-CYAN                        VALUE 128.
       78  BCKGRND-RED                         VALUE 160.
       78  BCKGRND-MAGENTA                     VALUE 192.
       78  BCKGRND-BROWN                       VALUE 224.
       78  BCKGRND-WHITE                       VALUE 256.
       78  BCKGRND-DARK-GRAY                   VALUE 288.
       78  BCKGRND-BRIGHT-BLUE                 VALUE 320.
       78  BCKGRND-BRIGHT-GREEN                VALUE 352.
       78  BCKGRND-BRIGHT-CYAN                 VALUE 384.
       78  BCKGRND-BRIGHT-RED                  VALUE 416.
       78  BCKGRND-BRIGHT-MAGENTA              VALUE 448.
       78  BCKGRND-YELLOW                      VALUE 480.
       78  BCKGRND-BRIGHT-WHITE                VALUE 512.
       78  COLOR-REVERSE                       VALUE 1024.
       78  FRGRND-LOW                          VALUE 2048.
       78  FRGRND-HIGH                         VALUE 4096.
       78  COLOR-UNDERLINE                     VALUE 8192.
       78  COLOR-BLINK                         VALUE 16384.
       78  COLOR-PROTECTED                     VALUE 32768.
       78  BCKGRND-LOW                         VALUE 65536.
       78  BCKGRND-HIGH                        VALUE 131072.
       78  WINDOW-BRIGHT-WHITE                 VALUE 131328.

C:\SM4\SM4GUI\Source\testprg.cbl Wed Jun 03 19:49:12 2009  ACUCOBOL-GT v8.1.0  Page: 0014



      *  Options for C$RERR STATUS-TYPE

       78  GET-FILE-STATUS                     VALUE 1.
       78  GET-TRANSACTION-STATUS              VALUE 2.

      *  Opcodes for C$FILESYS

       78  START-FILESYSTEM-LIST               VALUE 0.
       78  CONTINUE-FILESYSTEM-LIST            VALUE 1.
       78  CHECK-FOR-FILESYSTEM                VALUE 2.
       78  NUMBER-OF-FILESYSTEMS               VALUE 3.

       77  FILESYSTEM                          PIC X(5).

      * Flags for "C$SYSTEM"

       78  CSYS-ASYNC                          VALUE 1.
       78  CSYS-NO-IO                          VALUE 2.
       78  CSYS-MAXIMIZED                      VALUE 4.
       78  CSYS-MINIMIZED                      VALUE 8.
       78  CSYS-COMPATIBILITY                  VALUE 16.
       78  CSYS-HIDDEN                         VALUE 32.
       78  CSYS-SHELL                          VALUE 64.
       78  CSYS-DESKTOP                        VALUE 128.

      * Return codes for "C$PING"

       78  CPING_OK                            VALUE 0.
       78  CPING_NO_CLIENT                     VALUE 1.
       78  CPING_PARAM_ERROR                   VALUE 2.
       78  CPING_CONN_REFUSED                  VALUE 3.
       78  CPING_VERSION_ERROR                 VALUE 4.
       78  CPING_SOCKET_ERROR                  VALUE 5.

      * Opcodes for C$LIST-DIRECTORY

       78  LISTDIR-OPEN                        VALUE 1.
       78  LISTDIR-NEXT                        VALUE 2.
       78  LISTDIR-CLOSE                       VALUE 3.

      * The file information group passed to C$LIST-DIRECTORY
       01  LISTDIR-FILE-INFORMATION.
           03  LISTDIR-FILE-TYPE               PIC X.
               88  LISTDIR-FILE-TYPE-BLOCK-DEVICE          VALUE "B".
               88  LISTDIR-FILE-TYPE-CHARACTER-DEVICE      VALUE "C".
               88  LISTDIR-FILE-TYPE-DIRECTORY             VALUE "D".
               88  LISTDIR-FILE-TYPE-REGULAR-FILE          VALUE "F".
               88  LISTDIR-FILE-TYPE-PIPE                  VALUE "P".
               88  LISTDIR-FILE-TYPE-SOCKET                VALUE "S".
               88  LISTDIR-FILE-TYPE-UNKNOWN               VALUE "U".
           03  LISTDIR-FILE-CREATION-TIME.
               05  LDFC-YEAR                   PIC XX COMP-X.
               05  LDFC-MONTH                  PIC X COMP-X.
               05  LDFC-DAY                    PIC X COMP-X.
               05  LDFC-HOUR                   PIC X COMP-X.
               05  LDFC-MINUTE                 PIC X COMP-X.

C:\SM4\SM4GUI\Source\testprg.cbl Wed Jun 03 19:49:12 2009  ACUCOBOL-GT v8.1.0  Page: 0015


               05  LDFC-SECOND                 PIC X COMP-X.
               05  LDFC-HUNDRETHS              PIC X COMP-X.
           03  LISTDIR-FILE-LAST-ACCESS-TIME.
               05  LDFLA-YEAR                  PIC XX COMP-X.
               05  LDFLA-MONTH                 PIC X COMP-X.
               05  LDFLA-DAY                   PIC X COMP-X.
               05  LDFLA-HOUR                  PIC X COMP-X.
               05  LDFLA-MINUTE                PIC X COMP-X.
               05  LDFLA-SECOND                PIC X COMP-X.
               05  LDFLA-HUNDRETHS             PIC X COMP-X.
           03  LISTDIR-FILE-LAST-MODIFICATION-TIME.
               05  LDFLM-YEAR                  PIC XX COMP-X.
               05  LDFLM-MONTH                 PIC X COMP-X.
               05  LDFLM-DAY                   PIC X COMP-X.
               05  LDFLM-HOUR                  PIC X COMP-X.
               05  LDFLM-MINUTE                PIC X COMP-X.
               05  LDFLM-SECOND                PIC X COMP-X.
               05  LDFLM-HUNDRETHS             PIC X COMP-X.
           03  LISTDIR-FILE-SIZE               PIC X(8) COMP-X.

      * Opcodes for C$XML

       78  CXML-PARSE-FILE                     VALUE 1.
       78  CXML-RELEASE-PARSER                 VALUE 2.
       78  CXML-GET-FIRST-CHILD                VALUE 3.
       78  CXML-GET-NEXT-SIBLING               VALUE 4.
       78  CXML-GET-PARENT                     VALUE 5.
       78  CXML-GET-DATA                       VALUE 6.
       78  CXML-GET-ATTRIBUTE-COUNT            VALUE 7.
       78  CXML-GET-ATTRIBUTE                  VALUE 8.
       78  CXML-GET-LAST-ERROR                 VALUE 9.
       78  CXML-OPEN-FILE                      VALUE 10.
       78  CXML-PARSE-STRING                   VALUE 11.
       78  CXML-PARSE-NEXT-RECORD              VALUE 12.
       78  CXML-GET-PREV-SIBLING               VALUE 13.
       78  CXML-NEW-PARSER                     VALUE 14.
       78  CXML-GET-ATTRIBUTE-BY-NAME          VALUE 15.
       78  CXML-GET-CHILD-BY-NAME              VALUE 16.
       78  CXML-GET-CHILD-BY-CDATA             VALUE 17.
       78  CXML-GET-CHILD-BY-ATTR-NAME         VALUE 18.
       78  CXML-GET-CHILD-BY-ATTR-VALUE        VALUE 19.
       78  CXML-GET-SIBLING-BY-NAME            VALUE 20.
       78  CXML-GET-SIBLING-BY-CDATA           VALUE 21.
       78  CXML-GET-SIBLING-BY-ATTR-NAME       VALUE 22.
       78  CXML-GET-SIBLING-BY-ATTR-VALUE      VALUE 23.
       78  CXML-GET-COMMENT                    VALUE 24.
       78  CXML-SET-DATA                       VALUE 25.
       78  CXML-MODIFY-ATTRIBUTE-VALUE         VALUE 26.
       78  CXML-ADD-CHILD                      VALUE 27.
       78  CXML-ADD-SIBLING                    VALUE 28.
       78  CXML-ADD-ATTRIBUTE                  VALUE 29.
       78  CXML-ADD-COMMENT                    VALUE 30.
       78  CXML-APPEND-COMMENT                 VALUE 31.
       78  CXML-DELETE-ATTRIBUTE               VALUE 32.
       78  CXML-DELETE-ELEMENT                 VALUE 33.
       78  CXML-DELETE-COMMENT                 VALUE 34.
       78  CXML-WRITE-FILE                     VALUE 35.

C:\SM4\SM4GUI\Source\testprg.cbl Wed Jun 03 19:49:12 2009  ACUCOBOL-GT v8.1.0  Page: 0016


       78  CXML-GET-PROC-INSTR-COUNT           VALUE 36.
       78  CXML-GET-PROC-INSTR                 VALUE 37.
       78  CXML-SET-PROC-INSTR                 VALUE 38.
       78  CXML-GET-VERSION                    VALUE 39.
       78  CXML-SET-VERSION                    VALUE 40.
       78  CXML-GET-ENCODING                   VALUE 41.
       78  CXML-SET-ENCODING                   VALUE 42.
       78  CXML-GET-STANDALONE                 VALUE 43.
       78  CXML-SET-STANDALONE                 VALUE 44.
       78  CXML-GET-RAW-DOCTYPE-LEN            VALUE 45.
       78  CXML-GET-RAW-DOCTYPE                VALUE 46.
       78  CXML-SET-RAW-DOCTYPE                VALUE 47.

      * Error codes for C$XML

      * Unable to create parser due to low memory
       78  CXML-NO-MEMORY                      VALUE 1.
      * Unable to create parser - expat error
       78  CXML-EXPAT-ERROR                    VALUE 2.
      * Unable to open named file
       78  CXML-FILE-OPEN-ERROR                VALUE 3.
      * Invalid XML file or other parsing error
       78  CXML-PARSE-ERROR                    VALUE 4.
      * The passed handle is not a valid parser handle
       78  CXML-INVALID-PARSER-HANDLE          VALUE 5.
      * The passed handle is not a valid element handle
       78  CXML-INVALID-ELEMENT-HANDLE         VALUE 6.
      * Invalid attribute number
       78  CXML-INVALID-ATTRIBUTE-NUMBER       VALUE 7.
      * The URL given could not be accessed
       78  CXML-URL-ERROR                      VALUE 8.
      * The XML parser is not available on this machine
       78  CXML-NOT-AVAILABLE                  VALUE 9.
      * The specified element has no children
       78  CXML-NO-CHILDREN                    VALUE 10.
      * The specified element has no siblings
       78  CXML-NO-SIBLINGS                    VALUE 11.
      * The specified element is a top-level element
       78  CXML-NO-PARENT                      VALUE 12.
      * The specified element has no value
       78  CXML-NO-VALUE                       VALUE 13.
      * The specified element has no attributes
       78  CXML-NO-ATTRIBUTES                  VALUE 14.
      * The regular expression given caused an error
       78  CXML-REGEXP-ERROR                   VALUE 15.
      * The specified parser already has a top-level element
       78  CXML-TOP-LEVEL                      VALUE 16.
      * The specified processing instruction number does not exist
       78  CXML-INVALID-PROC-INSTR-NUMBER      VALUE 17.
      * No processing instructions are available
       78  CXML-NO-PROCESSING-INSTRUCTIONS     VALUE 18.

      * Opcodes for C$CONFIG (not many yet, but open for expansion)

       78  CCONFIG-RESET                       VALUE 1.

      * Opcodes for C$REGEXP

C:\SM4\SM4GUI\Source\testprg.cbl Wed Jun 03 19:49:12 2009  ACUCOBOL-GT v8.1.0  Page: 0017



       78  AREGEXP-GET-LEVEL                   VALUE 1.
       78  AREGEXP-COMPILE                     VALUE 2.
       78  AREGEXP-MATCH                       VALUE 3.
       78  AREGEXP-RELEASE-MATCH               VALUE 4.
       78  AREGEXP-RELEASE                     VALUE 5.
       78  AREGEXP-NUMGROUPS                   VALUE 6.
       78  AREGEXP-GETMATCH                    VALUE 7.
       78  AREGEXP-LAST-ERROR                  VALUE 20.

      * FLAGS for AREGEXP-COMPILE

       78  AREGEXP-COMPILE-IGNORECASE          VALUE 1.
       78  AREGEXP-COMPILE-BASIC               VALUE 2.
       78  AREGEXP-COMPILE-NO-SPECIAL          VALUE 4.
       78  AREGEXP-COMPILE-NO-SUB              VALUE 8.
       78  AREGEXP-COMPILE-NEWLINE             VALUE 16.
       78  AREGEXP-COMPILE-NO-REGEXP           VALUE 32.

      * Error codes for C$REGEXP

       78  AREGEXP-ERROR-NO-ERROR              VALUE 0.
       78  AREGEXP-ERROR-NO-MEMORY             VALUE 1.
       78  AREGEXP-ERROR-BRACE-EXPECTED        VALUE 2.
       78  AREGEXP-ERROR-PAREN-EXPECTED        VALUE 3.
       78  AREGEXP-ERROR-BRACKET-EXPECTED      VALUE 4.
       78  AREGEXP-ERROR-UNEXPECTED            VALUE 5.
       78  AREGEXP-ERROR-EMPTY-RANGE           VALUE 6.
       78  AREGEXP-ERROR-INVALID-GROUP         VALUE 7.
       78  AREGEXP-ERROR-INVALID-RANGE         VALUE 8.
       78  AREGEXP-ERROR-EMPTY-REPEATOP        VALUE 9.
       78  AREGEXP-ERROR-INVALID-INPUT         VALUE 10.
       78  AREGEXP-ERROR-INVALID-HANDLE        VALUE 11.
       78  AREGEXP-ERROR-INVALID-ARGUMENT      VALUE 12.
       78  AREGEXP-ERROR-INVALID-CALL-SEQ      VALUE 13.
       78  AREGEXP-ERROR-NO-MATCH              VALUE 14.

      * Return codes for C$REGEXP AREGEXP-GET-LEVEL

       78  AREGEXP-NONE                        VALUE 0.
       78  AREGEXP-WINDOWS                     VALUE 1.
       78  AREGEXP-POSIX                       VALUE 2.

      * Opcodes for C$SYSLOG

       78  CSYSLOG-OPEN                        VALUE 0.
       78  CSYSLOG-WRITE                       VALUE 1.
       78  CSYSLOG-CLOSE                       VALUE 2.

      * Priority codes for C$SYSLOG

       78  CSYSLOG-PRIORITY-SUCCESS            VALUE 0.
       78  CSYSLOG-PRIORITY-INFORMATION        VALUE 1.
       78  CSYSLOG-PRIORITY-WARNING            VALUE 2.
       78  CSYSLOG-PRIORITY-ERROR              VALUE 3.

      * end of acucobol.def

C:\SM4\SM4GUI\Source\testprg.cbl Wed Jun 03 19:49:12 2009  ACUCOBOL-GT v8.1.0  Page: 0018


       COPY "crtvars.def".
      * CRTVARS.DEF - definitions of commonly needed screen handling variables
      * Date written: 27-Aug-96 - TDC.

      * Copyright (c) 1996-2007 by Acucorp, Inc.  Users of ACUCOBOL
      * may freely include this file in their COBOL source code.

       01  EVENT-STATUS
           IS SPECIAL-NAMES EVENT STATUS.
           03  EVENT-TYPE                      PIC X(4) COMP-X.
           03  EVENT-WINDOW-HANDLE             HANDLE OF WINDOW.
           03  EVENT-CONTROL-HANDLE            HANDLE.
           03  EVENT-CONTROL-ID                PIC XX COMP-X.
           03  EVENT-DATA-1                    SIGNED-SHORT.
           03  EVENT-DATA-2                    SIGNED-LONG.
           03  EVENT-ACTION                    PIC X COMP-X.

       01  SCREEN-CONTROL
           IS SPECIAL-NAMES SCREEN CONTROL.
           03  ACCEPT-CONTROL                  PIC 9.
           03  CONTROL-VALUE                   PIC 999.
           03  CONTROL-HANDLE                  HANDLE.
           03  CONTROL-ID                      PIC XX COMP-X.

      * End of CRTVARS.DEF
       COPY "showmsg.def".
       01 Extend-Stat.
           03 Primary-Error              PIC X(2).
           03 Secondary-Error            PIC X(10).
       01 Text-Message                   PIC X(40).

       01 Acu-Show-Msg.
          05 Acu-Call-Fail-Code     PIC X(2).
          05 Acu-Msg-Id             PIC 9(3).
          05 Acu-Err-File           PIC X(30).

      * for message display
       78 Acu-Length VALUE 80.
       78 Acu-Full-Len VALUE 250.
       01 Acu-Msg-BOX.
      * Mb-Default-Icon, Mb-Warning-Icon, Mb-Error-Icon, 4:QUESTION
          05 Acu-Icon-Type PIC 9 VALUE 1.
      * Mb-Yes, Mb-No, Mb-Cancel
          05 Acu-Default-Button PIC 9 VALUE 1.
      * Mb-Ok, Mb-Yes-No, Mb-Ok-Cancel, Mb-Yes-No-Cancel
          05 Acu-Button-Type PIC 9 VALUE 1.
      * Mb-Yes, Mb-No, Mb-Cancel
          05 Acu-Return-Value PIC 9 VALUE 1.
          05 Acu-Msg-1 PIC X(Acu-Length).
          05 Acu-Msg-2 PIC X(Acu-Length).
          05 Acu-Msg-3 PIC X(Acu-Length).
          05 Acu-Msg-Text PIC X(Acu-Full-Len).

          05 Acu-Text-Ptr             SIGNED-SHORT.
          05 Acu-Size                 SIGNED-SHORT.



C:\SM4\SM4GUI\Source\testprg.cbl Wed Jun 03 19:49:12 2009  ACUCOBOL-GT v8.1.0  Page: 0019


       77 Acu-Idx1                    PIC 9(3).
       77 Acu-Idx2                    PIC 9(3).
       77 Acu-Idx3                    PIC 9(3).
      *{Bench}end
      *{Bench}extern-def
      *{Bench}end

           COPY "V-VAR.CPY".
       01  INPUT-ERROR           PIC 9.
       01  NOT-FOUND             PIC 9.
       77  EXC-KEY               PIC 9(4) COMP-1.
       77  ESC-KEY               PIC 9(4) COMP-1.
       77  NUL-KEY               PIC 9(4) COMP-1 VALUE 0.
       77  SAVE-KEY              PIC 9(4) COMP-1 VALUE 1.
       77  FAKE-KEY              PIC 9(4) COMP-1 VALUE 13.
       77  DEL-KEY               PIC 9(4) COMP-1 VALUE 98.
       77  WR-KEY                PIC 9(4) COMP-1 VALUE 99.
       77  PV-KEY                PIC 9(4) COMP-1 VALUE 65.
       77  NX-KEY                PIC 9(4) COMP-1 VALUE 66.
       01  IDX                   PIC 9(4)  VALUE 0.
       01  IDX-1                 PIC 9(4)  VALUE 0.
       01  IDX-2                 PIC 9(4)  VALUE 0.
       01  IDX-3                 PIC 9(4)  VALUE 0.
       01  IDX-4                 PIC 9(4)  VALUE 0.
       01  STORE                 PIC 9(8)  VALUE 0.
       01  STATUT                PIC 9 VALUE 0.
       01  LAST-PERSON           PIC 9(8) VALUE 0.
       01  COUT                  PIC 9(8) VALUE 0.
       01  COUT-DEBUT            PIC 9(8) VALUE 0.
       01  COUT-FIN              PIC 9(8) VALUE 0.
       01  COD-SAL               PIC 9(4) VALUE 0.
       01  CS-DEBUT              PIC 9(4) VALUE 0.
       01  CS-FIN                PIC 9(4) VALUE 0.
       01  ACC-IDX PIC 9(6).
       01  ACC-I REDEFINES ACC-IDX.
           02 LIN-IDX            PIC 99.
           02 COL-IDX            PIC 99.
           02 SIZ-IDX            PIC 99.
       77  SH-00                 PIC S9(10)V999999 COMP-3 VALUE 0.
       77  SH-01                 PIC S9(10)V999999 COMP-3 VALUE 0.
       01  ECRAN-IDX             PIC 99 VALUE 1.
       01  INDICE-ZONE           PIC 999 VALUE 1.
       01  DECISION              PIC 999.
       01  ACTION                PIC X VALUE " ".
       01  A-N                   PIC X VALUE "N".
       01  SAVE-LANGUAGE         PIC XX.
       01  SAVE-DATE.
           02 SAVE-ANNEE         PIC 9999.
           02 SAVE-MOIS          PIC 99.
           02 SAVE-JOUR          PIC 99.

       01  EXC-KEY-CTL.
           02 EXC-KEY-FUN     PIC 99  OCCURS 70.
       01  EXC-KEY-CTL-R REDEFINES EXC-KEY-CTL.
           02 EXC-KFR         PIC 9(10)  OCCURS 14.

       01  TODAY.

C:\SM4\SM4GUI\Source\testprg.cbl Wed Jun 03 19:49:12 2009  ACUCOBOL-GT v8.1.0  Page: 0020


           02 TODAY-DATE   PIC 9(8).
           02 TODAY-DATE-R REDEFINES TODAY-DATE.
              03 TODAY-ANNEE  PIC 9999.
              03 TD-ANNEE-R REDEFINES TODAY-ANNEE.
                 04 TD-SIECLE PIC 99.
                 04 TD-ANNEE  PIC 99.
              03 TODAY-MJ  PIC 9999.
              03 TD-MJ-R REDEFINES TODAY-MJ.
                 04 TODAY-MOIS   PIC 99.
                 04 TODAY-JOUR   PIC 99.
           02 TODAY-TEMPS.
              03 TODAY-HEURE  PIC 99.
              03 TODAY-MIN    PIC 99.
              03 TODAY-SECS   PIC 9999.
       01  TODAY-A REDEFINES TODAY.
           02 TODAY-TIME.
              03 TODAY-DATE-A    PIC 9(8).
              03 TODAY-TEMPS-A   PIC 9(4).
           02 TODAY-FILLER.
              03 TODAY-FILL   PIC 9999.
       01  TODAY-B REDEFINES TODAY.
           02 TODAY-TIME-B.
              03 TODAY-DATE-B    PIC 9(8).
              03 TODAY-TEMPS-B   PIC 9(6).
           02 TODAY-FILLER.
              03 TODAY-FILL   PIC 99.


           COPY "PARMOD.REC".
       01  PARMOD-RECORD.
           02 PARMOD-KEY.
              03 PARMOD-MODULE  PIC X(10).
              03 PARMOD-FIRME   PIC 999999.
           02 PARMOD-KEY-1 REDEFINES PARMOD-KEY.
              03 PARMOD-MODULE-1 PIC X(9).
              03 PARMOD-MODULE-2 PIC 9.
              03 PARMOD-FIRME-1  PIC 999999.

           02 PARMOD-KEY-2 REDEFINES PARMOD-KEY.
              03 PARMOD-MODULE-3 PIC XX.
              03 PARMOD-MODULE-4 PIC 9(8).
              03 PARMOD-FIRME-2  PIC 999999.
           02 PARMOD-KEY-3 REDEFINES PARMOD-KEY.
              03 PARMOD-MODULE-5 PIC X(8).
              03 PARMOD-USER     PIC X(8).
           02 PARMOD-KEY-4 REDEFINES PARMOD-KEY.
              03 PARMOD-MODULE-6 PIC XX.
              03 PARMOD-ANNEE    PIC 9(4).
              03 PARMOD-MOIS     PIC 9(2).
              03 PARMOD-JOUR     PIC 9(2).
              03 PARMOD-FIRME-3  PIC 999999.

           02 PARMOD-REC-DET.
              03 PARMOD-PROG-NUMBER-1        PIC 9(8).
              03 PARMOD-LINKS REDEFINES PARMOD-PROG-NUMBER-1.
                 04 PARMOD-STATUT   PIC 9.
                 04 PARMOD-MOIS-DEB PIC 99.

C:\SM4\SM4GUI\Source\testprg.cbl Wed Jun 03 19:49:12 2009  ACUCOBOL-GT v8.1.0  Page: 0021


                 04 PARMOD-MOIS-FIN PIC 99.
                 04 PARMOD-VIDE     PIC 999.

              03 PARMOD-PROG-NUMBER-2        PIC 9(8).
              03 PARMOD-PRIM REDEFINES PARMOD-PROG-NUMBER-2.
                 04 PARMOD-PRIME    PIC 9(6)V99.
              03 PARMOD-PROG-NUMBER-3        PIC 9(8).
              03 PARMOD-PROG-NUMBER-4        PIC 9(8).
              03 PARMOD-EXTENSION-1          PIC X(8).
              03 PARMOD-EXTENSION-2          PIC X(8).
              03 PARMOD-EXTENSION-3          PIC X(8).
              03 PARMOD-EXTENSION-4          PIC X(8).
              03 PARMOD-DEC REDEFINES PARMOD-EXTENSION-4.
                 04 PARMOD-D                 PIC X OCCURS 8.
              03 PARMOD-PATH                 PIC X(40).
              03 REC-PATH REDEFINES PARMOD-PATH PIC X(40).
              03 PARMOD-MATR REDEFINES PARMOD-PATH PIC X(40).
              03 PARMOD-TEXTE.
                 04 PARMOD-TX20                 PIC X(20) OCCURS 10.
              03 PARMOD-TEXTE-S REDEFINES PARMOD-TEXTE.
                 04 PARMOD-SETTINGS             PIC X(50).
                 04 PARMOD-SETS REDEFINES PARMOD-SETTINGS.
                    05 PARMOD-SET               PIC X OCCURS 50.
                 04 PARMOD-SELECT               PIC 9(3) OCCURS 50.
              03 PARMOD-S REDEFINES PARMOD-TEXTE.
                 05 PM-SET                      PIC X OCCURS 200.
              03 PARMOD-TEXTE-1 REDEFINES PARMOD-TEXTE.
                 04 PARMOD-TEXT1                PIC X(50).
                 04 PARMOD-TEXT3                PIC X(150).
              03 PARMOD-TEXTE-R REDEFINES PARMOD-TEXTE.
                 04 PARMOD-TXT                  PIC X(40) OCCURS 5.
              03 PARMOD-TEXTE-P REDEFINES PARMOD-TEXTE.
                 04 PARMOD-PATH1                PIC X(50).
                 04 PARMOD-PATH2                PIC X(50).
                 04 PARMOD-PATH3                PIC X(50).
                 04 PARMOD-PATH4                PIC X(50).
              03 PARMOD-TEXTE-PR REDEFINES PARMOD-TEXTE.
                 04 PARMOD-PATH-PROTO           PIC X(100).
                 04 PARMOD-PATH-REAL            PIC X(100).
              03 PARMOD-TEXTE-PS REDEFINES PARMOD-TEXTE.
                 04 PARMOD-PATHS                PIC X(50) OCCURS 4.
              03 PARMOD-SELECTION  REDEFINES PARMOD-TEXTE.
                 04 PARMOD-SEL                  PIC 9(10) OCCURS 20.
              03 PARMOD-TEXTE-CS REDEFINES PARMOD-TEXTE.
                 04 PARMOD-DET PIC 9999 OCCURS  50.
           02 PARMOD-TEXTE-LONG REDEFINES PARMOD-REC-DET.
                 04 PARMOD-TXL                  PIC X(50) OCCURS 6.
                 04 PARMOD-FILLER-2             PIC X(4).
           02 PARMOD-REC2 REDEFINES PARMOD-REC-DET.
                 04 PARMOD-TX                   PIC X(304).
           02 PARMOD-REC3 REDEFINES PARMOD-REC-DET.
                 04 PARMOD-PATH5                PIC X(40).
                 04 PARMOD-TX3                  PIC X(264).
           02 PARMOD-REC4 REDEFINES PARMOD-REC-DET.
                 04 PARMOD-TX4                  PIC X(15) OCCURS 20.
                 04 PARMOD-FILLER-4             PIC X(4).
           02 PARMOD-REC5 REDEFINES PARMOD-REC-DET.

C:\SM4\SM4GUI\Source\testprg.cbl Wed Jun 03 19:49:12 2009  ACUCOBOL-GT v8.1.0  Page: 0022


                 04 PAR-SEL                  PIC 9(8) OCCURS 38.
           COPY "MENU.LNK".

      *  ENREGISTREMENT FICHIER MENUS
       01  LINK-RECORD.
           02  LINK-KEY.
               03  LINK-LEVEL.
                   04  LINK-LEV              PIC 99 OCCURS 5.

           02  LINK-BODY.
               03  LINK-PROG-NAME            PIC X(8).
               03  LINK-PROG-NAME-R REDEFINES LINK-PROG-NAME.
                   04 LINK-PROG-BEG          PIC XX.
                   04 LINK-PROG-END          PIC X(6).
               03  LINK-COMPETENCE           PIC 9.
               03  LINK-CALL                 PIC X(8).
               03  LINK-PASSWORD             PIC X(22).
               03  LINK-DESCRIPTION          PIC X(40).
               03  LINK-HELP-TEXT            PIC 9(8).
               03  LINK-PROG-NUMBER          PIC 9(8).
               03  LINK-EXTENSION-1          PIC X(8).
               03  LINK-EXTENSION-2          PIC X(8).
               03  LINK-TEST                 PIC 9.
               03  LINK-BATCH                PIC 9.
               03  LINK-LOG                  PIC 9.
               03  LINK-FILLER               PIC X(20).





      *{Bench}copy-working
       COPY "testprg.wrk".
      * testprg.wrk
      * testprg.wrk is generated from C:\SM4\SM4GUI\testprg.Psf
      * This is a generated file. DO NOT modify this file directly.

       77 Quit-Mode-Flag PIC S9(5) COMP-4 VALUE 0.
       77 Key-Status IS SPECIAL-NAMES CRT STATUS PIC 9(4) VALUE 0.
           88 Exit-Pushed VALUE 27.
           88 Message-Received VALUE 95.
           88 Event-Occurred VALUE 96.
           88 Screen-No-Input-Field VALUE 97.
           88 Screen-Time-Out VALUE 99.
      * property-defined variable

      * user-defined variable
       77 Screen1-Handle
                  USAGE IS HANDLE OF WINDOW.
       77 Screen1-Ef-1-Value           PIC  X(30)
                  VALUE IS "defaultText".
      *{Bench}end
       LINKAGE                     SECTION.
      *{Bench}linkage
      *{Bench}end
           COPY "V-LINK.CPY".
       01  LINK-V.

C:\SM4\SM4GUI\Source\testprg.cbl Wed Jun 03 19:49:12 2009  ACUCOBOL-GT v8.1.0  Page: 0023


           02 LNK-USER       PIC X(10).
           02 LNK-LANGUAGE   PIC XX.
           02 LG-IDX         PIC 99.
           02 LNK-AREA       PIC XXXX.
           02 LNK-COMPETENCE PIC 9.
           02 LNK-DATE.
              03 LNK-ANNEE  PIC 9(4).
              03 LNK-ANNEE-R REDEFINES LNK-ANNEE.
                 04 LNK-MILLE   PIC 9.
                 04 LNK-SUFFIX  PIC 999.
              03 LNK-ANNEE-S REDEFINES LNK-ANNEE.
                 04 LNK-SIECLE   PIC 99.
                 04 LNK-DECENNIE PIC 99.
              03 LNK-MOIS   PIC 99.
              03 LNK-JOUR   PIC 99.
           02 LNK-DATE-DEVIANT.
              03 LNK-ANNEE-D PIC 9(4).
              03 LNK-ANNEE-DR REDEFINES LNK-ANNEE-D.
                 04 LNK-MILLE-D  PIC 9.
                 04 LNK-SUFFIX-D PIC 999.
              03 LNK-MOIS-D  PIC 99.
           02 LNK-SUITE      PIC 99.
           02 S-I.
              03 SEM-MOIS OCCURS 12.
                 04 SEM-IDX     PIC  9 OCCURS 31.
                 04 SEM-NUM     PIC 99 OCCURS 31.
                 04 SEM-LINE    PIC  9 OCCURS 31.
           02 MOIS-ANNEE        PIC X(24).
           02 MOIS-JOURS REDEFINES MOIS-ANNEE.
              03 MOIS-JRS PIC 99 OCCURS 12.
           02 INDEXES.
              03 MOIS-IDX PIC 999V9(8) OCCURS 12.
              03 MOIS-SALMIN PIC 9(5)V9(4) OCCURS 12.
           02 INDEX-F REDEFINES INDEXES.
              03 MOIS-TX PIC 99999V9(6) OCCURS 12.
              03 MOIS-SALMINR PIC 9(5)V9(4) OCCURS 12.

           02 LNK-MATRICULE  PIC 9(11).
           02 LNK-KEY        PIC 9(8).
           02 LNK-PERSON     PIC 9(8).
           02 LNK-AB         REDEFINES LNK-PERSON.
              03 LNK-A       PIC 9(4).
              03 LNK-B       PIC 9(4).
           02 LNK-NOM        PIC X(60).
           02 LNK-NOM-R1     REDEFINES LNK-NOM.
              03 LNK-MATR       PIC 9(13).
              03 LNK-FILL       PIC X(47).
           02 LNK-NOM-R      REDEFINES LNK-NOM.
              03 LNK-TEXT       PIC X(50).
              03 LNK-NUM        PIC 9(6).
              03 LNK-CALL-1     PIC 99.
              03 LNK-CALL-2     PIC 99.
           02 LNK-NOM-R2     REDEFINES LNK-NOM.
              03 LNK-TEXT-1     PIC X(20).
              03 LNK-TEXT-2     PIC X(20).
              03 LNK-TEXT-3     PIC X(20).
           02 LNK-STATUS     PIC 99.

C:\SM4\SM4GUI\Source\testprg.cbl Wed Jun 03 19:49:12 2009  ACUCOBOL-GT v8.1.0  Page: 0024


           02 LNK-VAL        PIC S9(8)V9(4) COMP-3.
           02 LNK-VAL-2      PIC S9(8)V9(4) COMP-3.
           02 LNK-INDEX      PIC 99.
           02 LNK-CHOIX      PIC 99.
           02 LNK-YN         PIC X.
           02 LNK-POSITION   PIC 9(8).
           02 LNK-POSITION-R REDEFINES LNK-POSITION.
              03 LNK-LINE    PIC 99.
              03 LNK-COL     PIC 99.
              03 LNK-SIZE    PIC 99.
              03 LNK-SPACE   PIC 99.

           02 LNK-LOW        PIC X.
           02 LNK-EXC-KEY    PIC 9(4) COMP-1.
           02 LNK-A-N        PIC X.
           02 LNK-PRESENCE   PIC 9.
           02 LNK-LIMITE     PIC 9999.
           02 LNK-COLOR1     PIC 9.
           02 LNK-COLOR2     PIC 9.
           02 LNK-COLOR3     PIC 9.
           02 LNK-FIRME      PIC 9(6).
           02 LNK-REGISTRE   PIC 9(8).
           02 LNK-TOP        PIC 9999.
           02 LNK-TODAY      PIC 9(8).
           02 LNK-TODAY-R REDEFINES LNK-TODAY.
              03 LNK-AA  PIC 9(4).
              03 LNK-MM  PIC 99.
              03 LNK-JJ  PIC 99.
           02 LNK-LICENSE    PIC 9999.
           02 LNK-FILLER     PIC X(11).
           02 LNK-LOG        PIC X.
           02 LNK-SQL        PIC X.

      *    Copie du fichier menu

           02 MENU-RECORD.
              03 MENU-KEY.
                 04 MENU-LEVEL.
                    05 MENU-LEV      PIC 99 OCCURS 5.

              03 MENU-BODY.
                 04 MENU-PROG-NAME   PIC X(8).
                 04 MENU-PROG-NAME-R REDEFINES MENU-PROG-NAME.
                    05 MENU-PROG-BEG PIC XX.
                    05 MENU-PROG-END PIC X(6).
                 04 MENU-COMPETENCE  PIC 9.
                 04 MENU-CALL        PIC X(8).
                 04 MENU-PASSWORD    PIC X(22).
                 04 MENU-DESCRIPTION PIC X(40).
                 04 MENU-HELP-TEXT   PIC 9(8).
                 04 MENU-PROG-NUMBER PIC 9(8).
                 04 MENU-PROG-NUMBERS REDEFINES MENU-PROG-NUMBER.
                    05 MENU-PROG-NUM PIC 9 OCCURS 8.
                 04 MENU-EXTENSION-1 PIC X(8).
                 04 MENU-EXTENSION-2 PIC X(8).
                 04 MENU-TEST        PIC 9.
                 04 MENU-BATCH       PIC 9.

C:\SM4\SM4GUI\Source\testprg.cbl Wed Jun 03 19:49:12 2009  ACUCOBOL-GT v8.1.0  Page: 0025


                 04 MENU-LOG         PIC 9.
                 04 MENU-FILLER      PIC X(20).


      *     COPY "V-ERR.CPY".
      *     COPY "FIRME.LNK".


           COPY "V-ERR.CPY".
       02  FS-ERROR.
           03 FS-AGENCE     PIC XX.
           03 FS-ATTENTE    PIC XX.
           03 FS-DOCUMENT   PIC XX.
           03 FS-CONTACT    PIC XX.
           03 FS-POCL       PIC XX.
           03 FS-BANQF      PIC XX.
           03 FS-BANQP      PIC XX.
           03 FS-BANQUE     PIC XX.
           03 FS-PLAN       PIC XX.
           03 FS-COMPTE     PIC XX.
           03 FS-CODTEXT    PIC XX.
           03 FS-CALEN      PIC XX.
           03 FS-CARRIERE   PIC XX.
           03 FS-CCOL       PIC XX.
           03 FS-CDPOST     PIC XX.
           03 FS-CONTRAT    PIC XX.
           03 FS-REGIME     PIC XX.
           03 FS-CONGE      PIC XX.
           03 FS-CODFIX     PIC XX.
           03 FS-CODSAL     PIC XX.
           03 FS-CODPAR     PIC XX.
           03 FS-CODCOPY    PIC XX.
           03 FS-CONTYPE    PIC XX.
           03 FS-FUSER      PIC XX.
           03 FS-COUT       PIC XX.
           03 FS-DIS        PIC XX.
           03 FS-DIVIS      PIC XX.
           03 FS-CCC        PIC XX.
           03 FS-CREDIT     PIC XX.
           03 FS-METIER     PIC XX.
           03 FS-QUALIF     PIC XX.
           03 FS-EQUIPE     PIC XX.
           03 FS-LAYOUT     PIC XX.
           03 FS-CCM        PIC XX.
           03 FS-FACTURE    PIC XX.
           03 FS-FICHE      PIC XX.
           03 FS-FIRME      PIC XX.
           03 FS-FISC       PIC XX.
           03 FS-TAUXCC     PIC XX.
           03 FS-BAREME     PIC XX.
           03 FS-BARDEF     PIC XX.
           03 FS-FAMILLE    PIC XX.
           03 FS-COMPP      PIC XX.
           03 FS-CPFIX      PIC XX.
           03 FS-HORSEM     PIC XX.
           03 FS-CONV       PIC XX.
           03 FS-PLANDEF    PIC XX.

C:\SM4\SM4GUI\Source\testprg.cbl Wed Jun 03 19:49:12 2009  ACUCOBOL-GT v8.1.0  Page: 0026


           03 FS-IMPOT      PIC XX.
           03 FS-IMPLOG     PIC XX.
           03 FS-IMPSYS     PIC XX.
           03 FS-IMPTYP     PIC XX.
           03 FS-FID        PIC XX.
           03 FS-INDEX      PIC XX.
           03 FS-LOG        PIC XX.
           03 FS-JOURNAL    PIC XX.
           03 FS-LIBELLE    PIC XX.
           03 FS-MISSION    PIC XX.
           03 FS-LIVRE      PIC XX.
           03 FS-MEMO       PIC XX.
           03 FS-MOTDEP     PIC XX.
           03 FS-JOURS      PIC XX.
           03 FS-HEURES     PIC XX.
           03 FS-PLANS      PIC XX.
           03 FS-OCCUP      PIC XX.
           03 FS-OCCOM      PIC XX.
           03 FS-OCCTEXT    PIC XX.
           03 FS-RUBRIQUE   PIC XX.
           03 FS-PAIE       PIC XX.
           03 FS-PALIER     PIC XX.
           03 FS-PAYS       PIC XX.
           03 FS-PERSON     PIC XX.
           03 FS-POSTE      PIC XX.
           03 FS-PRIME      PIC XX.
           03 FS-ETAPE      PIC XX.
           03 FS-INTER      PIC XX.
           03 FS-POSE       PIC XX.
           03 FS-PREV       PIC XX.
           03 FS-RAISON     PIC XX.
           03 FS-COMPETE    PIC XX.
           03 FS-SPOOLM     PIC XX.
           03 FS-MINUTE     PIC XX.
           03 FS-SYNDICAT   PIC XX.
           03 FS-STATUT     PIC XX.
           03 FS-RAPPORT    PIC XX.
           03 FS-PCREF      PIC XX.
           03 FS-TRI        PIC XX.
           03 FS-REGION     PIC XX.
           03 FS-TAUX       PIC XX.
           03 FS-TAUXSS     PIC XX.
           03 FS-TXACC      PIC XX.
           03 FS-MALADIE    PIC XX.
           03 FS-VOITURE    PIC XX.
           03 FS-DIPLOME    PIC XX.
           03 FS-MENUTEXT   PIC XX.
           03 FS-VIREM      PIC XX.
           03 FS-MENU       PIC XX.
           03 FS-USER       PIC XX.
           03 FS-MESSAGE    PIC XX.
           03 FS-HELP       PIC XX.
           03 FS-PRINTER    PIC XX.
           03 FS-MENUC      PIC XX.
           03 FS-LIVREARC   PIC XX.
           03 FS-CODARC     PIC XX.
           03 FS-GEOREG     PIC XX.

C:\SM4\SM4GUI\Source\testprg.cbl Wed Jun 03 19:49:12 2009  ACUCOBOL-GT v8.1.0  Page: 0027


           03 FS-BANQC      PIC XX.
           03 FS-REGISTRE   PIC XX.
           03 FS-POINT      PIC XX.
           03 FS-LEX        PIC XX.
           03 FS-PLAGE      PIC XX.
           03 FS-PROFESSION PIC XX.
           03 FS-QUADEF     PIC XX.
           03 FS-HRANN      PIC XX.
           03 FS-CSPDET     PIC XX.
           03 FS-DECMAL     PIC XX.
           03 FS-SNOCS      PIC XX.
           03 FS-SPOOLQ     PIC XX.
           03 FS-PARMOD     PIC XX.
           03 FS-IMPTAB     PIC XX.
           03 FS-FORM       PIC XX.
           03 FS-OBJET      PIC XX.
           03 FS-TRANS      PIC XX.
           03 FS-PICKUP     PIC XX.
           03 FS-HOPSEM     PIC XX.
           03 FS-DEVISE     PIC XX.
           03 FS-HPJOUR     PIC XX.
           03 FS-LIVANN     PIC XX.
           03 FS-TRACT      PIC XX.
           03 FS-BANQCL     PIC XX.
           03 FS-DOMAINE    PIC XX.
           03 FS-CANDIDAT   PIC XX.
           03 FS-CRITERE    PIC XX.
           03 FS-DOSSIER    PIC XX.
           03 FS-PROFILE    PIC XX.
           03 FS-EVAL       PIC XX.
           03 FS-POSTES     PIC XX.
           03 FS-EVEN       PIC XX.
           03 FS-DEMANDE    PIC XX.
           03 FS-SECTEUR    PIC XX.
           03 FS-FIRMAT     PIC XX.
           03 FS-FNAME      PIC XX.
           03 FS-ORTKZ      PIC XX.
           03 FS-CSDEF      PIC XX.
           03 FS-143        PIC XX.
           03 FS-144        PIC XX.
           03 FS-145        PIC XX.
           03 FS-146        PIC XX.
           03 FS-147        PIC XX.
           03 FS-148        PIC XX.
           03 FS-149        PIC XX.
           03 FS-TVA        PIC XX.
           03 FS-PRIX       PIC XX.
           03 FS-ARTICLE    PIC XX.
           03 FS-ECHEANCE   PIC XX.
           03 FS-VIRDEB     PIC XX.
           03 FS-VIRCRE     PIC XX.
           03 FS-CREART     PIC XX.
           03 FS-157        PIC XX.
           03 FS-158        PIC XX.
           03 FS-159        PIC XX.
           03 FS-PERS-ARCH  PIC XX.
           03 FS-REG-ARCH   PIC XX.

C:\SM4\SM4GUI\Source\testprg.cbl Wed Jun 03 19:49:12 2009  ACUCOBOL-GT v8.1.0  Page: 0028


           03 FS-CON-ARCH   PIC XX.
           03 FS-CAR-ARCH   PIC XX.
           03 FS-FICHE-ARCH PIC XX.
           03 FS-CG-ARCH    PIC XX.
           03 FS-BQ-ARCH    PIC XX.
           03 FS-BQP-ARCH   PIC XX.
           03 FS-VIR-ARCH   PIC XX.
           03 FS-MUTU       PIC XX.
           03 FS-170        PIC XX.
           03 FS-171        PIC XX.
           03 FS-172        PIC XX.
           03 FS-173        PIC XX.
           03 FS-174        PIC XX.
           03 FS-175        PIC XX.
           03 FS-176        PIC XX.
           03 FS-177        PIC XX.
           03 FS-178        PIC XX.
           03 FS-179        PIC XX.
           03 FS-180        PIC XX.
           03 FS-181        PIC XX.
           03 FS-182        PIC XX.
           03 FS-183        PIC XX.
           03 FS-184        PIC XX.
           03 FS-185        PIC XX.
           03 FS-186        PIC XX.
           03 FS-187        PIC XX.
           03 FS-188        PIC XX.
           03 FS-189        PIC XX.
           03 FS-FIRME-ARCH PIC XX.
           03 FS-CC-ARCH    PIC XX.
           03 FS-BQF-ARCH   PIC XX.
           03 FS-193        PIC XX.
           03 FS-194        PIC XX.
           03 FS-195        PIC XX.
           03 FS-196        PIC XX.
           03 FS-197        PIC XX.
           03 FS-198        PIC XX.
           03 FS-199        PIC XX.
           03 FS-200        PIC XX.
       02  FS-ERROR-R REDEFINES FS-ERROR.
           03 FS-ERR        PIC XX OCCURS 200.

       02  EXTENDED-STATUS PIC 99V99.


       SCREEN                      SECTION.
      *{Bench}copy-screen
       COPY "testprg.scr".
      * testprg.scr
      * testprg.scr is generated from C:\SM4\SM4GUI\testprg.Psf
      * This is a generated file. DO NOT modify this file directly.

       01 Screen1.
           03 Screen1-Pb-1, Push-Button,
              COL 52,40, LINE 3,00, LINES 3,40 CELLS, SIZE 10,20 CELLS,
              EXCEPTION-VALUE 1000, ID IS 1, SELF-ACT,
              TITLE "Ende".

C:\SM4\SM4GUI\Source\testprg.cbl Wed Jun 03 19:49:12 2009  ACUCOBOL-GT v8.1.0  Page: 0029


           03 Screen1-Ef-1, Entry-Field,
              COL 3,90, LINE 4,30, LINES 23,60 CELLS, SIZE 46,10 CELLS,
              3-D, ID IS 2, VALUE Screen1-Ef-1-Value.
           03 Screen1-Pb-2, Push-Button,
              COL 52,70, LINE 10,00, LINES 4,10 CELLS,
              SIZE 10,00 CELLS,
              EXCEPTION-VALUE 1001, ID IS 3, SELF-ACT,
              TITLE "do".
           03 Screen1-Pb-3, Push-Button,
              COL 52,70, LINE 16,20, LINES 4,10 CELLS,
              SIZE 10,10 CELLS,
              EXCEPTION-VALUE 1002, ID IS 4, SELF-ACT,
              TITLE "Datei lesen".
      *{Bench}end

      *{Bench}linkpara
       PROCEDURE DIVISION .
      *{Bench}end
      *{Bench}declarative
      *{Bench}end

       Acu-Main-Logic.
      *{Bench}entry-befprg
      *    Before-Program
      *{Bench}end
000005     PERFORM Acu-Initial-Routine
      * run main screen
      *{Bench}run-mainscr
000009     PERFORM Acu-Screen1-Routine
      *{Bench}end
00000D     PERFORM Acu-Exit-Rtn
           .

       leseDatei.

000015     move "hallo karl" To Screen1-Ef-1-Value
00001D     Display Screen1-Ef-1

           .

      *{Bench}copy-procedure
       COPY "showmsg.cpy".
      *
       Acu-Extended-File-Status.
000029     CALL "C$RERRNAME" USING Acu-Err-File
000034     CALL "C$RERR" USING Extend-Stat, Text-Message
000043        MOVE Primary-Error TO Acu-Msg-Id
00004A        PERFORM Acu-Show-Msg
           .
       Acu-Show-Msg.
000052     MOVE SPACE TO Acu-Msg-1 Acu-Msg-2 Acu-Msg-3
000062     EVALUATE Acu-Msg-Id
           WHEN 10
00006C        MOVE "No more data."  TO Acu-Msg-1
000074        MOVE Mb-Default-Icon TO Acu-Icon-Type
00007A        MOVE Mb-Ok TO Acu-Button-Type
           WHEN 22

C:\SM4\SM4GUI\Source\testprg.cbl Wed Jun 03 19:49:12 2009  ACUCOBOL-GT v8.1.0  Page: 0030


00008C        MOVE "Key duplication." TO Acu-Msg-1
000094        MOVE Mb-Error-Icon TO Acu-Icon-Type
00009A        MOVE Mb-Ok TO Acu-Button-Type
           WHEN 23
0000AC        MOVE "Record not found." TO Acu-Msg-1
0000B4        MOVE Mb-Warning-Icon TO Acu-Icon-Type
0000BA        MOVE Mb-Ok TO Acu-Button-Type
           WHEN 101
0000CC        MOVE "Quit?" TO Acu-Msg-1
0000D4        MOVE 4 TO Acu-Icon-Type
0000DA        MOVE Mb-Yes-No TO Acu-Button-Type
           WHEN 201
0000EC        MOVE "Add Record?" TO Acu-Msg-1
0000F4        MOVE 4 TO Acu-Icon-Type
0000FA        MOVE Mb-Yes-No TO Acu-Button-Type
           WHEN 202
00010C        MOVE "Update Record?" TO Acu-Msg-1
000114        MOVE 4 TO Acu-Icon-Type
00011A        MOVE Mb-Yes-No TO Acu-Button-Type
           WHEN 203
00012C        MOVE "Delete Record?" TO Acu-Msg-1
000134        MOVE 4 TO Acu-Icon-Type
00013A        MOVE Mb-Yes-No TO Acu-Button-Type
           WHEN 204
00014C        MOVE "Key duplication." TO Acu-Msg-1
000154        MOVE Mb-Warning-Icon TO Acu-Icon-Type
00015A        MOVE Mb-Ok TO Acu-Button-Type
           WHEN 301
00016C        MOVE "Add Successful." TO Acu-Msg-1
000174        MOVE Mb-Default-Icon TO Acu-Icon-Type
00017A        MOVE Mb-Ok TO Acu-Button-Type
           WHEN 302
00018C        MOVE "Update Successful." TO Acu-Msg-1
000194        MOVE Mb-Default-Icon TO Acu-Icon-Type
00019A        MOVE Mb-Ok TO Acu-Button-Type
           WHEN 303
0001AC        MOVE "Delete Successful." TO Acu-Msg-1
0001B4        MOVE Mb-Default-Icon TO Acu-Icon-Type
0001BA        MOVE Mb-Ok TO Acu-Button-Type
           WHEN 401
0001CC        MOVE "Shell not found." TO Acu-Msg-1
0001D4        MOVE Mb-Error-Icon TO Acu-Icon-Type
0001DA        MOVE Mb-Ok TO Acu-Button-Type
      * user-defined message
           WHEN 901
0001EC        MOVE Mb-Warning-Icon TO Acu-Icon-Type
0001F2        MOVE Mb-Ok TO Acu-Button-Type
           WHEN OTHER
0001FB        MOVE Text-Message TO Acu-Msg-1
000203        STRING "File:" Acu-Err-File DELIMITED BY SPACE
                 INTO Acu-Msg-2
000211        STRING "File status ", Primary-Error "," Secondary-Error
                 DELIMITED BY SIZE INTO Acu-Msg-3
           END-EVALUATE
000228     PERFORM Acu-Message-Box
           .


C:\SM4\SM4GUI\Source\testprg.cbl Wed Jun 03 19:49:12 2009  ACUCOBOL-GT v8.1.0  Page: 0031


       Acu-Message-Box.
000230     MOVE 1 TO Acu-Text-Ptr
000236     IF Acu-Msg-1 NOT = SPACE
00023F        MOVE 0 TO Acu-Size
000244        INSPECT Acu-Msg-1 TALLYING Acu-Size FOR TRAILING SPACE
000255        STRING Acu-Msg-1( 1 : Acu-Length - Acu-Size )
                 DELIMITED BY SIZE
                 INTO Acu-Msg-Text, POINTER Acu-Text-Ptr
           END-IF

000272     IF Acu-Msg-2 NOT = SPACE
00027B        MOVE 0 TO Acu-Size
000280        INSPECT Acu-Msg-2 TALLYING Acu-Size FOR TRAILING SPACE
000291        IF ACU-Text-Ptr > 1
00029A           STRING X"0A" DELIMITED BY SIZE
                     INTO Acu-Msg-Text, POINTER Acu-Text-Ptr
              END-IF
0002A7        STRING Acu-Msg-2( 1 : Acu-Length - Acu-Size )
                  DELIMITED BY SIZE
                  INTO Acu-Msg-Text, POINTER Acu-Text-Ptr
           END-IF

0002C4     IF Acu-Msg-3 NOT = SPACE
0002CD        MOVE 0 TO Acu-Size
0002D2        INSPECT Acu-Msg-3 TALLYING Acu-Size FOR TRAILING SPACE
0002E3        IF Acu-Text-Ptr > 1
0002EC           STRING X"0A" DELIMITED BY SIZE
                     INTO Acu-Msg-Text, POINTER Acu-Text-Ptr
              END-IF
0002F9        STRING Acu-Msg-3( 1 : Acu-Length - Acu-Size )
                  DELIMITED BY SIZE
                  INTO Acu-Msg-Text, POINTER Acu-Text-Ptr
           END-IF

000316     IF Acu-Text-Ptr = 1
00031F       MOVE 0 TO Acu-Size
000324       INSPECT Acu-Msg-Text TALLYING Acu-Size FOR TRAILING SPACE
000335       COMPUTE Acu-Text-Ptr = Acu-Full-Len - Acu-Size + 1
           END-IF
000348     MOVE Low-Values TO Acu-Msg-Text( Acu-Text-Ptr : 1 )

000354     DISPLAY MESSAGE BOX
              Acu-Msg-Text
              TYPE IS Acu-Button-Type
              ICON IS Acu-Icon-Type
              DEFAULT IS Acu-Default-Button
              RETURNING Acu-Return-Value
           .
       COPY "testprg.prd".
      * testprg.prd
      * testprg.prd is generated from C:\SM4\SM4GUI\testprg.Psf
      * This is a generated file. DO NOT modify this file directly.

       Acu-Initial-Routine.
      *    Before-Init
      * get system information
00036B     ACCEPT System-Information FROM System-Info

C:\SM4\SM4GUI\Source\testprg.cbl Wed Jun 03 19:49:12 2009  ACUCOBOL-GT v8.1.0  Page: 0032


      * get terminal information
000371     ACCEPT Terminal-Abilities FROM Terminal-Info
      *    After-Init
           .

       Acu-Exit-Rtn.
      *    After-Program
00037B     EXIT PROGRAM
00037E     STOP RUN
           .

       Acu-Screen1-Routine.
      *    Before-Routine
000386     PERFORM Acu-Screen1-Scrn
00038A     PERFORM Acu-Screen1-Proc
      *    After-Routine
           .

       Acu-Screen1-Scrn.
000392     PERFORM Acu-Screen1-Create-Win
000396     PERFORM Acu-Screen1-Init-Data
           .

       Acu-Screen1-Create-Win.
      *    Before-Create
      * display screen
00039E        DISPLAY Standard GRAPHICAL WINDOW
                 LINES 48,00, SIZE 64,00, CELL HEIGHT 10,
                 CELL WIDTH 10, AUTO-MINIMIZE, COLOR IS 65793,
                 LABEL-OFFSET 0, LINK TO THREAD, MODELESS, NO SCROLL,
                 WITH SYSTEM MENU,
-->ERROR: * expected, MENU found
                 TITLE "Screen", TITLE-BAR, USER-GRAY, USER-WHITE,
-->ERROR: identifier expected, TITLE found
-->ERROR: Verb expected, TITLE found
                 NO WRAP,
                 EVENT PROCEDURE Screen1-Event-Proc,
                 HANDLE IS Screen1-Handle
      * toolbar
           DISPLAY Screen1 UPON Screen1-Handle
      *    After-Create
           .

       Acu-Screen1-Init-Data.
      *    Before-Initdata
      *    After-Initdata
0003C9     .
      * Screen1
       Acu-Screen1-Proc.
0003CD     PERFORM UNTIL Exit-Pushed
0003D6        ACCEPT Screen1
0003E0           ON EXCEPTION PERFORM Acu-Screen1-Evaluate-Func
              END-ACCEPT
           END-PERFORM
0003E6     DESTROY Screen1-Handle
0003E9     INITIALIZE Key-Status
           .

C:\SM4\SM4GUI\Source\testprg.cbl Wed Jun 03 19:49:12 2009  ACUCOBOL-GT v8.1.0  Page: 0033



      * Screen1
       Acu-Screen1-Evaluate-Func.
0003F2     EVALUATE TRUE
              WHEN Exit-Pushed
0003FA           PERFORM Acu-Screen1-Exit
              WHEN Event-Occurred
000409           IF Event-Type = Cmd-Close
000412              PERFORM Acu-Screen1-Exit
                 END-IF
      * Screen1-Pb-1 Link To
              WHEN Key-Status = 1000
000421           PERFORM Acu-Screen1-Exit
      * Screen1-Pb-2 Link To
              WHEN Key-Status = 1001
000430           PERFORM Screen1-Pb-1-Link
      * Screen1-Pb-3 Link To
              WHEN Key-Status = 1002
00043F           PERFORM Screen1-Pb-3-Link
           END-EVALUATE
000442     MOVE 1 TO Accept-Control
           .

       Acu-Screen1-Exit.
00044C     SET Exit-Pushed TO TRUE
           .

       COPY "testprg.evt".
      * testprg.evt
      * testprg.evt is generated from C:\SM4\SM4GUI\testprg.Psf
      * This is a generated file. DO NOT modify this file directly.


       Acu-Screen1-Event-Extra.
000455     EVALUATE Event-Type
           WHEN Msg-Close
00045D        PERFORM Acu-Screen1-Msg-Close
           END-EVALUATE
           .

       Acu-Screen1-Msg-Close.
000465     ACCEPT Quit-Mode-Flag FROM ENVIRONMENT "QUIT_MODE"
00046B     IF Quit-Mode-Flag = ZERO
000473        PERFORM Acu-Screen1-Exit
000476        PERFORM Acu-Exit-Rtn
           END-IF
           .

       Screen1-Event-Proc.
      *
00047E     PERFORM Acu-Screen1-Event-Extra
           .
      ***   start event editor code   ***
      *
       Screen1-Pb-1-Link.
000485     move "hallo michi" to Screen1-Ef-1-Value
00048B     Display Screen1-Ef-1

C:\SM4\SM4GUI\Source\testprg.cbl Wed Jun 03 19:49:12 2009  ACUCOBOL-GT v8.1.0  Page: 0034


           .
      *
       Screen1-Pb-3-Link.


000497     perform leseDatei

           .


      *{Bench}end
       REPORT-COMPOSER SECTION.

C:\SM4\SM4GUI\Source\testprg.cbl Wed Jun 03 19:49:12 2009  ACUCOBOL-GT v8.1.0  Page: 0035


STATISTICS

Total Lines:        1888
# of Files:            1
# of Data Items:    1238
# of Paragraphs:      20

Elapsed Time:        0.0 seconds
Lines/Minute:    2832000

Errors found, size information suppressed

3 Error(s), 0 Warning(s)
