FAMIL-La-1 010155
FAMIL-La-2 020120
FAMIL-La-3 030120
FAMIL-La-4 040120
FAMIL-La-5 050126
FAMIL-La-6 060120
FAMIL-La-7 070120
FAMIL-La-8 080120
FAMIL-La-9 090120
FAMIL-La-10 100120
FAMIL-La-11 110120
FAMIL-La-12 120120
FAMIL-La-13 130120
FAMIL-La-14 140120
FAMIL-La-15 150120
FAMIL-La-16 160120
FAMIL-La-17 170120
FAMIL-La-18 180120
FAMIL-La-19 190120
FAMIL-La-20 200120
FAMIL-La-21 210120
FAMIL-La-22 220120
FAMIL-La-23 230120
FAMIL-La-24 240120
